<?xml version="1.0" encoding="UTF-8"?>
<svg width="430px" height="69px" viewBox="0 0 430 69" version="1.1" xmlns="http://www.w3.org/2000/svg" xmlns:xlink="http://www.w3.org/1999/xlink" uk-scrollspy="cls: uk-animation-slide-left; repeat: true">
    <!-- Generator: Sketch 51.2 (57519) - http://www.bohemiancoding.com/sketch -->
    <title>Group 9</title>
    <desc>Created with Sketch.</desc>
    <defs></defs>
    <g id="Page-1" stroke="none" stroke-width="1" fill="none" fill-rule="evenodd">
        <g id="Group-9" transform="translate(-1.000000, 0.000000)">
            <polygon id="Shape" fill="#8FBE4D" points="36.208 0.703 47.113 22.8 71.498 26.343 53.853 43.543 58.019 67.829 36.208 56.362 14.397 67.829 18.563 43.543 0.918 26.343 25.303 22.8"></polygon>
            <polygon id="Shape" fill="#8FBE4D" points="125.891 0.703 136.796 22.8 161.181 26.343 143.535 43.543 147.701 67.829 125.891 56.362 104.08 67.829 108.246 43.543 90.601 26.343 114.985 22.8"></polygon>
            <polygon id="Shape" fill="#8FBE4D" points="215.573 0.703 226.479 22.8 250.863 26.343 233.218 43.543 237.384 67.829 215.573 56.362 193.763 67.829 197.929 43.543 180.283 26.343 204.668 22.8"></polygon>
            <polygon id="Shape" fill="#8FBE4D" points="305.256 0.703 316.161 22.8 340.546 26.343 322.9 43.543 327.066 67.829 305.256 56.362 283.445 67.829 287.611 43.543 269.966 26.343 294.351 22.8"  uk-scrollspy="cls: uk-animation-slide-right; repeat: true"></polygon>
            <polygon id="Shape" stroke="#8FBE4D" fill="#FFFFFF" points="394.938 0.703 405.844 22.8 430.229 26.343 412.583 43.543 416.749 67.829 394.938 56.362 373.128 67.829 377.294 43.543 359.648 26.343 384.033 22.8"></polygon>
        </g>
    </g>
</svg>