<?xml version="1.0" encoding="UTF-8"?>
<svg width="799px" height="691px" viewBox="0 0 799 691" version="1.1" xmlns="http://www.w3.org/2000/svg" xmlns:xlink="http://www.w3.org/1999/xlink">
    <!-- Generator: Sketch 51.2 (57519) - http://www.bohemiancoding.com/sketch -->
    <title>hero-top</title>
    <desc>Created with Sketch.</desc>
    <defs>
        <linearGradient x1="-7.0934972e-05%" y1="50.0001506%" x2="100.0001%" y2="50.0001506%" id="linearGradient-1">
            <stop stop-color="#FFFFFF" offset="0%"></stop>
            <stop stop-color="#FDFEFF" offset="26.94%"></stop>
            <stop stop-color="#F4FAFD" offset="42.5%"></stop>
            <stop stop-color="#E6F4FB" offset="55.16%"></stop>
            <stop stop-color="#D2EBF8" offset="66.27%"></stop>
            <stop stop-color="#B9DFF3" offset="76.35%"></stop>
            <stop stop-color="#99D0EE" offset="85.7%"></stop>
            <stop stop-color="#74BFE8" offset="94.31%"></stop>
            <stop stop-color="#57B2E3" offset="100%"></stop>
        </linearGradient>
        <linearGradient x1="-3.6814188e-05%" y1="49.9998417%" x2="99.9997208%" y2="49.9998417%" id="linearGradient-2">
            <stop stop-color="#FFFFFF" offset="0%"></stop>
            <stop stop-color="#FDFEFF" offset="26.94%"></stop>
            <stop stop-color="#F4FAFD" offset="42.5%"></stop>
            <stop stop-color="#E6F4FB" offset="55.16%"></stop>
            <stop stop-color="#D2EBF8" offset="66.27%"></stop>
            <stop stop-color="#B9DFF3" offset="76.35%"></stop>
            <stop stop-color="#99D0EE" offset="85.7%"></stop>
            <stop stop-color="#74BFE8" offset="94.31%"></stop>
            <stop stop-color="#57B2E3" offset="100%"></stop>
        </linearGradient>
        <linearGradient x1="0%" y1="49.9989794%" x2="100.000402%" y2="49.9989794%" id="linearGradient-3">
            <stop stop-color="#FFFFFF" offset="0%"></stop>
            <stop stop-color="#F0F8FD" offset="3.31%"></stop>
            <stop stop-color="#C8E6F6" offset="13.68%"></stop>
            <stop stop-color="#A5D6F0" offset="24.71%"></stop>
            <stop stop-color="#88C9EB" offset="36.32%"></stop>
            <stop stop-color="#73BFE8" offset="48.71%"></stop>
            <stop stop-color="#63B7E5" offset="62.26%"></stop>
            <stop stop-color="#5AB3E3" offset="77.83%"></stop>
            <stop stop-color="#57B2E3" offset="100%"></stop>
        </linearGradient>
    </defs>
    <g id="Page-1" stroke="none" stroke-width="1" fill="none" fill-rule="evenodd">
        <g id="hero-top" transform="translate(-1.000000, 0.000000)" fill-rule="nonzero">
            <path d="M23.0451025,425.193622 C30.2031891,440.174943 57.7968109,497.915262 123.065148,527.5918 C136.942141,533.90615 202.215945,563.586333 257.173576,536.471982 C329.878815,500.586788 306.850114,403.595444 374.52574,355.112528 C432.712528,313.412301 495.970843,390.438269 565.907973,352.338952 C602.414579,332.448292 631.544419,289.428702 632.473804,250.937585 C635.360364,130.819134 366.607745,-70.9794989 168.849203,26.704328 C24.8984055,97.8150342 -34.6405467,304.482916 23.0451025,425.193622 Z" id="Shape" fill="url(#linearGradient-1)"></path>
            <path d="M557.554442,506.618679 C535.309339,506.618679 513.087927,503.285649 491.637358,496.001822 C416.705239,470.52574 358.981321,396.207745 337.226424,297.202733 C320.477449,220.931207 330.24328,149.691116 361.54533,119.927107 C382.848292,99.6683371 422.707973,91.4259681 454.230524,100.759909 C484.13303,109.601822 496.984055,133.095216 509.412301,155.817768 C521.508884,177.929841 532.93303,198.819134 559.318451,203.201822 C589.031435,208.147608 613.856948,195.885194 637.853303,184.029157 C664.903872,170.673349 690.440091,158.051936 721.734852,168.703417 C750.89385,178.629613 775.342141,206.543964 790.573121,247.307517 C799.444191,271.065148 806.403645,309.596355 789.168109,358.228702 C761.23918,436.98041 659.283827,506.618679 557.554442,506.618679 Z M426.512984,100 C402.707973,100 378.507517,108.052847 363.673804,122.16492 C333.122551,151.209112 323.71754,221.288383 340.249658,296.539408 C361.764009,394.482005 418.729841,467.95262 492.632346,493.069704 C610.615034,533.179043 752.685194,451.876082 786.252392,357.195444 C803.185421,309.439636 796.371754,271.661048 787.671982,248.386333 C772.779954,208.512073 749.005923,181.246469 720.741686,171.624601 C690.653303,161.383144 665.671071,173.729385 639.221868,186.799089 C614.779043,198.875626 589.49795,211.362187 558.810023,206.254214 C530.952164,201.620046 519.169021,180.089294 506.702506,157.299317 C494.576765,135.125285 482.035535,112.2041 453.357631,103.723007 C444.845558,101.197267 435.706606,100 426.512984,100 Z" id="Shape" fill="url(#linearGradient-2)"></path>
            <g id="Group" transform="translate(60.136674, 23.690205)" fill="#78C4D4" opacity="0.4">
                <circle id="Oval" cx="308.648747" cy="5.82961276" r="4.3498861"></circle>
                <path d="M10.2596811,226.385421 C6.52756264,226.385421 3.48428246,223.345786 3.48428246,219.610023 C3.48428246,215.87426 6.52756264,212.832802 10.2596811,212.832802 C13.9990888,212.832802 17.0314351,215.87426 17.0314351,219.610023 C17.0314351,223.345786 13.9990888,226.385421 10.2596811,226.385421 Z M10.2596811,215.444191 C7.9690205,215.444191 6.09749431,217.313895 6.09749431,219.610023 C6.09749431,221.907973 7.9690205,223.775854 10.2596811,223.775854 C12.5594533,223.775854 14.4255125,221.907973 14.4255125,219.610023 C14.4255125,217.313895 12.5594533,215.444191 10.2596811,215.444191 Z" id="Shape"></path>
                <path d="M295.814123,21.1462415 L295.814123,18.6824601 L298.27426,18.6824601 C299.387699,18.6824601 300.286105,17.7876993 300.286105,16.670615 C300.286105,15.56082 299.387699,14.6569476 298.27426,14.6569476 L295.814123,14.6569476 L295.814123,12.1949886 C295.814123,11.0851936 294.913895,10.1813212 293.800456,10.1813212 C292.687016,10.1813212 291.78861,11.0851936 291.78861,12.1949886 L291.78861,14.6569476 L289.326651,14.6569476 C288.215034,14.6569476 287.312984,15.56082 287.312984,16.670615 C287.312984,17.7876993 288.215034,18.6824601 289.326651,18.6824601 L291.78861,18.6824601 L291.78861,21.1462415 C291.78861,22.2578588 292.687016,23.1599089 293.800456,23.1599089 C294.913895,23.1599089 295.814123,22.2578588 295.814123,21.1462415 Z" id="Shape"></path>
                <circle id="Oval" cx="2.61685649" cy="200.034624" r="2.17585421"></circle>
            </g>
            <path d="M680.894761,423.387699 C681.457859,433.002278 674.119362,441.250114 664.504784,441.809567 L480.307973,452.532118 L463.469704,453.519818 L452.171298,454.168565 L435.090661,455.156264 L408.060137,456.730752 L385.698405,458.028246 L376.184055,458.585877 L353.88246,459.885194 L177.226424,470.174032 C167.610023,470.735308 159.360364,463.394989 158.804556,453.78041 L140.041913,131.393166 L662.11754,100.965831 L680.894761,423.387699 Z" id="Shape" fill="#35A8E0" opacity="0.5"></path>
            <path d="M619.959909,409.299317 L160.388155,455.017768 C143.979954,456.650569 129.357631,444.670615 127.721185,428.262415 L103.303872,182.81549 C101.669248,166.401822 113.643736,151.777677 130.053759,150.14123 L589.629157,104.424601 C606.041002,102.795444 620.663326,114.775399 622.29795,131.181777 L646.71344,376.634169 C648.351708,393.044191 636.371754,407.668337 619.959909,409.299317 Z" id="Shape" fill="#7BCAFF" opacity="0.5"></path>
            <path d="M431.595444,432.916629 L215.12164,432.916629 C206.704328,432.916629 199.888838,426.099317 199.888838,417.683827 L199.888838,176.535763 C199.888838,168.120273 206.704328,161.304784 215.12164,161.304784 L431.595444,161.304784 C440.001822,161.304784 446.822779,168.120273 446.822779,176.535763 L446.822779,417.682005 C446.822779,426.097494 440.001822,432.916629 431.595444,432.916629 Z" id="Shape" fill="#7BCAFF" opacity="0.5"></path>
            <g id="Group" transform="translate(114.806378, 43.735763)">
                <path d="M444.829157,41.7202733 L3.70296128,67.4168565 L1.64191344,32.0546697 C1.44692483,28.7088838 3.99453303,25.8441913 7.34031891,25.6455581 L436.358998,0.656036446 C439.704784,0.461047836 442.573121,3.01230068 442.769932,6.35808656 L444.829157,41.7202733 Z" id="Shape" fill="#D3D3D3"></path>
                <rect id="Rectangle-path" fill="#F2F2F2" transform="translate(223.371800, 38.964282) rotate(-3.336516) translate(-223.371800, -38.964282) " x="10.6001846" y="32.1196689" width="425.54323" height="13.6892263"></rect>
                <rect id="Rectangle-path" fill="#F9F4EA" transform="translate(13.593209, 36.252947) rotate(-3.325076) translate(-13.593209, -36.252947) " x="10.035181" y="32.6949195" width="7.11605531" height="7.11605531"></rect>
                <rect id="Rectangle-path" fill="#F9F4EA" transform="translate(26.252450, 35.576609) rotate(-3.353676) translate(-26.252450, -35.576609) " x="22.6961414" y="32.0193885" width="7.11261788" height="7.11444022"></rect>
                <rect id="Rectangle-path" fill="#F9F4EA" transform="translate(38.834721, 34.746125) rotate(-3.313636) translate(-38.834721, -34.746125) " x="35.2785566" y="31.1899604" width="7.11232836" height="7.11232836"></rect>
            </g>
            <path d="M189.29385,231.868793 C185.601822,231.868793 182.487472,228.969476 182.270615,225.237358 L180.120273,188.311617 C180.005467,186.432802 180.635991,184.628702 181.886105,183.225513 C183.136219,181.822323 184.861959,180.985877 186.738952,180.87836 L405.038724,168.160364 C408.891116,167.969021 412.246014,170.899317 412.473804,174.775399 L414.62779,211.701139 C414.738952,213.574487 414.110251,215.384055 412.860137,216.789066 C411.611845,218.190433 409.893394,219.025057 408.018223,219.136219 L189.705695,231.854214 C189.567198,231.863326 189.430524,231.868793 189.29385,231.868793 Z M405.457859,171.579043 C405.384966,171.579043 405.312073,171.582688 405.242825,171.586333 L186.932118,184.304328 C185.973576,184.358998 185.089749,184.781777 184.450114,185.503417 C183.805011,186.225057 183.491572,187.147153 183.544419,188.112984 L185.696583,225.038724 C185.807745,227.023235 187.50615,228.561276 189.510706,228.428246 L407.81959,215.710251 C408.781777,215.657403 409.660137,215.227335 410.301595,214.514806 C410.943052,213.793166 411.263781,212.865604 411.212756,211.907062 L409.060592,174.975854 C408.942141,173.062415 407.351253,171.579043 405.457859,171.579043 Z" id="Shape" fill="#DADADA"></path>
            <path d="M192.947608,294.571298 C189.253759,294.571298 186.143052,291.677449 185.926196,287.947153 L183.77221,251.014123 C183.551708,247.143508 186.512984,243.814123 190.385421,243.58451 L408.699772,230.866515 C412.561276,230.676993 415.899772,233.609112 416.131207,237.481549 L418.277904,274.407289 C418.511162,278.276082 415.544419,281.612756 411.666515,281.844191 L193.359453,294.560364 C193.222779,294.565831 193.08246,294.571298 192.947608,294.571298 Z M409.104328,234.283371 C409.038724,234.283371 408.965831,234.287016 408.900228,234.290661 L190.585877,247.008656 C188.608656,247.127107 187.077904,248.834624 187.196355,250.819134 L189.344875,287.748519 C189.459681,289.73303 191.178132,291.272893 193.16082,291.138041 L411.469704,278.420046 C413.459681,278.308884 414.974032,276.599544 414.861048,274.615034 L412.710706,237.682005 C412.599544,235.76492 411.003189,234.283371 409.104328,234.283371 Z" id="Shape" fill="#DADADA"></path>
            <path d="M398.064692,275.45877 L179.41139,271.903417 C176.481093,271.856036 174.130296,269.430524 174.179499,266.494761 L174.78451,229.508884 C174.830068,226.573121 177.251936,224.229613 180.191344,224.273349 L398.841002,227.830524 C401.776765,227.877904 404.122096,230.29795 404.076538,233.23918 L403.473349,270.225057 C403.425968,273.162642 401.007745,275.507973 398.064692,275.45877 Z" id="Shape" fill="#F6F3FF"></path>
            <path d="M196.592255,357.277449 C194.871982,357.277449 193.228246,356.656036 191.927107,355.495216 C190.518451,354.245103 189.689294,352.523007 189.578132,350.646014 L187.424146,313.722096 C187.316629,311.846925 187.939863,310.03918 189.197267,308.634169 C190.445558,307.232802 192.165831,306.396355 194.041002,306.290661 L412.349886,293.570843 C416.18041,293.383144 419.564465,296.315262 419.777677,300.185877 L421.931663,337.115262 C422.159453,340.987699 419.196355,344.318907 415.322096,344.546697 L197.005923,357.264692 C196.867426,357.273804 196.728929,357.277449 196.592255,357.277449 Z M412.763554,296.991344 C412.692483,296.991344 412.61959,296.994989 412.553986,296.996811 L194.241458,309.714806 C193.279271,309.771298 192.3918,310.1959 191.755809,310.91754 C191.112528,311.63918 190.789977,312.561276 190.850114,313.527107 L192.998633,350.451025 C193.11344,352.437358 194.855581,353.935308 196.812756,353.846014 L415.127107,341.128018 C417.111617,341.009567 418.631435,339.296583 418.514806,337.313895 L416.362642,300.38451 C416.251481,298.472893 414.655125,296.991344 412.763554,296.991344 Z" id="Shape" fill="#DADADA"></path>
            <path d="M707.763098,332.255125 L502.584055,320.58861 C496.46287,320.240547 491.784966,314.9959 492.13303,308.87836 L507.471526,39.1271071 C507.814123,33.0077449 513.060592,28.3280182 519.181777,28.6797267 L724.36082,40.3425968 C730.47836,40.6888383 735.161731,45.9316629 734.817312,52.0528474 L719.473349,321.807745 C719.123462,327.925285 713.884282,332.601367 707.763098,332.255125 Z" id="Shape" fill="#7BCAFF" opacity="0.5"></path>
            <path d="M200.246014,419.981777 C198.520273,419.981777 196.874715,419.358542 195.579043,418.199544 C194.174032,416.953075 193.337585,415.227335 193.230068,413.353986 L191.079727,376.428246 C190.96492,374.549431 191.599089,372.74533 192.849203,371.342141 C194.101139,369.93713 195.815945,369.102506 197.696583,368.994989 L416.003645,356.278815 C417.922551,356.162187 419.688383,356.792711 421.089749,358.042825 C422.494761,359.294761 423.327563,361.015034 423.436902,362.890205 L425.585421,399.814123 C425.81139,403.688383 422.848292,407.026879 418.974032,407.249203 L200.663326,419.967198 C200.519362,419.978132 200.38451,419.981777 200.246014,419.981777 Z M416.422779,359.697494 C416.349886,359.697494 416.276993,359.699317 416.205923,359.701139 L197.891572,372.417312 C196.931207,372.473804 196.045558,372.90205 195.409567,373.620046 C194.769932,374.341686 194.44738,375.265604 194.505695,376.229613 L196.652392,413.158998 C196.770843,415.14533 198.496583,416.650569 200.46287,416.548519 L418.780866,403.832346 C420.765376,403.715718 422.281549,402.004556 422.16492,400.018223 L420.018223,363.088838 C419.961731,362.130296 419.533485,361.246469 418.811845,360.606834 C418.144875,360.018223 417.302961,359.697494 416.422779,359.697494 Z" id="Shape" fill="#DADADA"></path>
            <g id="Group" opacity="0.6" transform="translate(184.054670, 231.435080)" fill="#7BCAFF">
                <rect id="Rectangle-path" transform="translate(48.238993, 4.408391) rotate(0.928203) translate(-48.238993, -4.408391) " x="2.15828275" y="1.70124458" width="92.1614197" height="5.41429206"></rect>
                <polygon id="Shape" points="94.0482916 17.4888383 1.90250569 15.9908884 1.98268793 10.5876993 94.1302961 12.0838269"></polygon>
                <rect id="Rectangle-path" transform="translate(22.252357, 23.297554) rotate(0.939661) translate(-22.252357, -23.297554) " x="1.82067322" y="20.5931328" width="40.8633681" height="5.40884255"></rect>
            </g>
            <rect id="Rectangle-path" fill="#7BCAFF" opacity="0.6" transform="translate(339.054533, 247.415620) rotate(0.922475) translate(-339.054533, -247.415620) " x="326.594028" y="234.956937" width="24.9210112" height="24.9173665"></rect>
            <rect id="Rectangle-path" fill="#7BCAFF" opacity="0.6" transform="translate(375.042694, 248.042295) rotate(0.939661) translate(-375.042694, -248.042295) " x="362.58395" y="235.583551" width="24.9174879" height="24.9174879"></rect>
            <g id="Group" transform="translate(504.783599, 244.191344)">
                <rect id="Rectangle-path" fill="#F2F2F2" transform="translate(155.077739, 69.972775) rotate(-89.524456) translate(-155.077739, -69.972775) " x="85.1573352" y="68.2396857" width="139.840807" height="3.46617861"></rect>
                <rect id="Rectangle-path" fill="#F2F2F2" transform="translate(2.148638, 115.090978) rotate(-89.530185) translate(-2.148638, -115.090978) " x="-21.3956611" y="113.357891" width="47.088599" height="3.46617575"></rect>
                <rect id="Rectangle-path" fill="#F2F2F2" transform="translate(78.566536, 89.947940) rotate(-89.524456) translate(-78.566536, -89.947940) " x="29.2728113" y="88.2121171" width="98.5874503" height="3.47164577"></rect>
                <path d="M155.035991,107.17631 C154.959453,107.17631 154.88656,107.17631 154.806378,107.17631 C134.303417,107.005011 124.43918,84.4555809 114.899317,62.6460137 C105.421412,40.98041 96.4665148,20.5175399 78.4109339,20.366287 C78.3416856,20.366287 78.2724374,20.366287 78.2068337,20.366287 C60.2824601,20.366287 51.01959,40.608656 41.2191344,62.0318907 C31.3512528,83.5917995 21.1480638,105.887927 0.803644647,105.887927 C0.719817768,105.887927 0.648747153,105.887927 0.570387244,105.887927 L0.599544419,102.123007 C0.668792711,102.123007 0.734396355,102.123007 0.803644647,102.123007 C18.7298405,102.123007 27.9908884,81.8879271 37.7968109,60.4646925 C47.6628702,38.8993166 57.8624146,16.6031891 78.2068337,16.6031891 C78.2870159,16.6031891 78.3617312,16.6031891 78.4364465,16.6031891 C98.9394077,16.7763098 108.805467,39.329385 118.350797,61.1371298 C127.828702,82.7972665 136.779954,103.265604 154.835535,103.415034 C154.904784,103.415034 154.970387,103.415034 155.035991,103.415034 C172.969476,103.415034 182.232346,83.1726651 192.032802,61.7512528 C201.907973,40.1876993 212.105695,17.8897494 232.455581,17.8897494 C232.532118,17.8897494 232.605011,17.8897494 232.687016,17.8933941 L232.654214,21.656492 C232.58861,21.656492 232.51754,21.656492 232.455581,21.656492 C214.523918,21.656492 205.268337,41.8952164 195.45877,63.3166287 C185.590888,84.8838269 175.385877,107.17631 155.035991,107.17631 Z" id="Shape" fill="#005688"></path>
            </g>
            <g id="Group" transform="translate(504.783599, 218.678815)" fill="#57B2E3">
                <rect id="Rectangle-path" transform="translate(123.620467, 14.713791) rotate(93.233224) translate(-123.620467, -14.713791) " x="116.093422" y="-0.344854503" width="15.0540901" height="30.1172917"></rect>
                <rect id="Rectangle-path" transform="translate(70.358324, 11.758740) rotate(93.273266) translate(-70.358324, -11.758740) " x="62.828246" y="-3.29959281" width="15.0601552" height="30.1166657"></rect>
                <rect id="Rectangle-path" transform="translate(17.163102, 8.650664) rotate(93.233224) translate(-17.163102, -8.650664) " x="9.63332309" y="-6.40707046" width="15.059557" height="30.1154694"></rect>
            </g>
            <rect id="Rectangle-path" fill="#7BCAFF" opacity="0.5" transform="translate(260.244159, 321.527624) rotate(-3.330796) translate(-260.244159, -321.527624) " x="213.705251" y="317.891216" width="93.0778149" height="7.27281475"></rect>
            <rect id="Rectangle-path" fill="#7BCAFF" opacity="0.5" transform="translate(245.855232, 335.252486) rotate(-3.336516) translate(-245.855232, -335.252486) " x="214.523269" y="331.616058" width="62.6639277" height="7.27285705"></rect>
            <rect id="Rectangle-path" fill="#7BCAFF" opacity="0.5" transform="translate(292.145041, 332.648930) rotate(-3.325076) translate(-292.145041, -332.648930) " x="284.323758" y="329.011632" width="15.6425656" height="7.27459483"></rect>
            <rect id="Rectangle-path" fill="#7BCAFF" opacity="0.5" transform="translate(253.047261, 197.592247) rotate(-3.336516) translate(-253.047261, -197.592247) " x="206.508994" y="193.955818" width="93.0765338" height="7.27285705"></rect>
            <rect id="Rectangle-path" fill="#7BCAFF" opacity="0.5" transform="translate(234.977493, 211.606335) rotate(-3.330796) translate(-234.977493, -211.606335) " x="207.282119" y="207.969928" width="55.3907485" height="7.27281475"></rect>
            <rect id="Rectangle-path" fill="#7BCAFF" opacity="0.5" transform="translate(299.176097, 207.845588) rotate(-3.336516) translate(-299.176097, -207.845588) " x="269.855058" y="204.206426" width="58.6420796" height="7.27832399"></rect>
            <rect id="Rectangle-path" fill="#7BCAFF" opacity="0.5" transform="translate(235.977996, 385.886566) rotate(-3.330796) translate(-235.977996, -385.886566) " x="217.392319" y="382.249247" width="37.1713544" height="7.27463706"></rect>
            <rect id="Rectangle-path" fill="#7BCAFF" opacity="0.5" transform="translate(279.968772, 383.330813) rotate(-3.325076) translate(-279.968772, -383.330813) " x="261.384114" y="379.694427" width="37.1693163" height="7.27277253"></rect>
            <rect id="Rectangle-path" fill="#7BCAFF" opacity="0.5" transform="translate(249.472900, 398.047773) rotate(-3.336516) translate(-249.472900, -398.047773) " x="218.139114" y="394.409522" width="62.6675723" height="7.27650168"></rect>
            <rect id="Rectangle-path" fill="#7BCAFF" opacity="0.5" transform="translate(318.845720, 393.945253) rotate(-3.330796) translate(-318.845720, -393.945253) " x="287.975892" y="390.309757" width="61.7396552" height="7.27099245"></rect>
            <path d="M269.734852,213.233713 C254.474715,199.651936 234.806378,192.816401 214.372665,194.006378 C193.980866,195.192711 175.241913,204.271526 161.620046,219.533485 C154.826424,227.163554 149.824146,235.812301 146.640547,244.922096 C143.196355,254.605923 141.807745,264.809112 142.389066,274.89385 C142.981321,285.016856 145.550797,294.990433 150.09385,304.207745 C153.292027,310.768109 157.476082,316.900228 162.594989,322.451025 L155.487927,330.434624 L153.833257,328.996811 L151.670159,331.218223 L153.353986,360.098405 L168.264237,341.838724 L166.596811,340.357175 L173.743964,332.368109 C188.464692,343.092483 206.061048,347.916173 223.287472,346.913895 C242.861048,345.769476 262.035535,337.157175 276.036446,321.384966 C289.656492,306.084738 296.492027,286.421868 295.303872,266.024601 C294.112073,245.589066 285.033257,226.846469 269.734852,213.233713 Z M260.858314,307.876082 C240.23508,331.045103 204.632346,333.118907 181.432346,312.501139 C158.261503,291.888838 156.185877,256.246014 176.805467,233.08246 C186.793622,221.851481 200.575854,215.163554 215.555353,214.288838 C230.574943,213.415945 245.002278,218.461959 256.229613,228.451936 C267.453303,238.440091 274.139408,252.182232 275.017768,267.2 C275.888838,282.183144 270.842825,296.650569 260.858314,307.876082 Z" id="Shape" fill="#385F82" opacity="0.4"></path>
            <rect id="Rectangle-path" fill="#38464C" transform="translate(126.154642, 295.059448) rotate(-138.340291) translate(-126.154642, -295.059448) " x="118.696841" y="281.463198" width="14.9156019" height="27.1925"></rect>
            <path d="M58.0883827,371.493394 C63.6810934,376.470159 72.2952164,375.786788 77.0296128,369.986333 L128.732574,306.649658 L114.290661,293.802278 L57.3886105,352.506606 C52.1731207,357.884282 52.4920273,366.518451 58.0883827,371.493394 Z" id="Shape" fill="#66717B"></path>
            <path d="M112.991344,239.167198 C115.123462,275.78861 146.536674,303.74123 183.150797,301.609112 C198.906606,300.690661 213.08246,294.32164 223.914351,284.48656 C227.748519,281.040547 231.185421,277.140774 234.112073,272.849203 C235.876082,270.263326 237.507062,267.520729 238.928474,264.626879 C243.12164,256.153075 245.54533,246.642369 245.738497,236.652392 C245.758542,234.937585 245.738497,233.189977 245.636446,231.440547 C243.500683,194.819134 212.049203,166.830068 175.433257,168.964009 C173.680182,169.066059 171.89795,169.250114 170.206834,169.47426 C160.300683,170.820957 151.17631,174.327107 143.252847,179.475171 C140.543052,181.219134 138.004556,183.158087 135.633713,185.213667 C131.723007,188.615945 128.236902,192.488383 125.268337,196.696128 C116.747153,208.599544 112.07836,223.416856 112.991344,239.167198 Z" id="Shape" fill="#BDE5F2" opacity="0.6"></path>
            <path d="M143.251025,179.476993 L238.926651,264.628702 C243.119818,256.154897 245.543508,246.644191 245.736674,236.654214 L170.205011,169.476082 C160.300683,170.822779 151.174487,174.328929 143.251025,179.476993 Z" id="Shape" fill="#E3FBFF" opacity="0.3"></path>
            <path d="M125.266515,196.69795 L223.914351,284.48656 C227.748519,281.040547 231.185421,277.140774 234.112073,272.849203 L135.633713,185.21549 C131.721185,188.61959 128.236902,192.492027 125.266515,196.69795 Z" id="Shape" fill="#E3FBFF" opacity="0.3"></path>
            <path d="M179.256492,311.846925 C161.135308,311.846925 142.953986,305.47426 128.382688,292.506606 C96.8291572,264.430068 94.0063781,215.919818 122.082916,184.364465 C135.681093,169.084282 154.42369,160.009112 174.850114,158.822779 C195.311162,157.629157 214.937585,164.471982 230.223235,178.068337 C245.503417,191.668337 254.574943,210.407289 255.763098,230.830068 C256.954897,251.258314 250.124829,270.919362 236.521185,286.206834 C221.410478,303.181777 200.377221,311.846925 179.256492,311.846925 Z M179.378588,179.025057 C178.272437,179.025057 177.153531,179.056036 176.032802,179.12164 C161.025968,179.994533 147.263781,186.65877 137.275626,197.887927 C127.282005,209.111617 122.265148,223.553531 123.139863,238.560364 C124.012756,253.558087 130.675171,267.323918 141.897039,277.313895 C165.073349,297.935308 200.701595,295.859681 221.328474,272.687016 C231.320273,261.459681 236.342597,247.017768 235.466059,232.012756 C234.594989,217.013212 227.925285,203.249203 216.703417,193.261048 C206.316173,184.012756 193.169932,179.025057 179.378588,179.025057 Z" id="Shape" fill="#005688"></path>
            <g id="Group" transform="translate(557.630979, 60.136674)">
                <path d="M43.7849658,144.872893 C70.3580866,157.242825 102.826424,153.490661 126.070159,132.756264 C137.29385,122.735308 144.816401,110.139408 148.535763,96.6359909 L112.280638,86.5111617 C107.604556,103.353075 91.6974943,115.238269 73.5744875,114.205011 C68.608656,113.922551 63.9289294,112.708884 59.6993166,110.717084 L43.7849658,144.872893 Z" id="Shape" fill="#3AAAD2"></path>
                <path d="M19.3202733,126.686105 C19.8779043,127.307517 20.4646925,127.903417 21.0441913,128.502961 L48.2769932,102.520273 C41.2974943,95.1908884 37.2482916,85.0933941 37.8660592,74.1667426 C39.0578588,53.2519362 56.9676538,37.2701595 77.8806378,38.4583144 C92.7781321,39.3075171 105.193622,48.6378132 110.651481,61.5088838 L145.312073,46.7863326 C142.190433,39.3621868 137.791344,32.3116173 132.140319,25.9790433 C104.344419,-5.15899772 56.5284738,-7.87790433 25.3958998,19.9088838 C-5.77312073,47.7248292 -8.46651481,95.5444191 19.3202733,126.686105 Z" id="Shape" fill="#FFFFFF"></path>
                <path d="M113.618223,78.4747153 C113.457859,81.2628702 112.996811,83.9599089 112.284282,86.5093394 L148.539408,96.6341686 C153.109795,80.3334852 152.114806,62.6824601 145.313895,46.7863326 L110.653303,61.5088838 C112.880182,66.6933941 113.958998,72.4555809 113.618223,78.4747153 Z" id="Shape" fill="#3482CB"></path>
                <path d="M21.0441913,128.502961 C27.7084282,135.531663 35.4569476,141.007745 43.7849658,144.872893 L59.6993166,110.717084 C55.3694761,108.728929 51.5225513,105.911617 48.2751708,102.520273 L21.0441913,128.502961 Z" id="Shape" fill="#A5D9E7"></path>
            </g>
            <g id="Group" transform="translate(435.535308, 69.248292)">
                <path d="M8.44646925,2.02824601 C12.5722096,0.648747153 17.301139,1.7476082 20.3826879,5.19908884 C21.8715262,6.86469248 22.7699317,8.85102506 23.0906606,10.9066059 L17.5708428,11.7904328 C17.1626424,9.22642369 15.01959,7.20546697 12.3261959,7.05056948 C11.5899772,7.00683371 10.8774487,7.1070615 10.2232346,7.33302961 L8.44646925,2.02824601 Z" id="Shape" fill="#FFFFFF"></path>
                <path d="M4.53394077,4.29886105 C4.62323462,4.21685649 4.71617312,4.13667426 4.81457859,4.05649203 L8.39544419,8.34806378 C7.24191344,9.31571754 6.47289294,10.7334852 6.38359909,12.3553531 C6.20501139,15.4642369 8.57949886,18.1230068 11.6829157,18.2997722 C13.8933941,18.4218679 15.8833713,17.2592255 16.9056948,15.4514806 L21.7731207,18.2050114 C21.1826879,19.2455581 20.4173121,20.2150342 19.4769932,21.053303 C14.8574032,25.1790433 7.75398633,24.7744875 3.62642369,20.1548975 C-0.501138952,15.5261959 -0.0929384966,8.42460137 4.53394077,4.29886105 Z" id="Shape" fill="#3AAAD2"></path>
                <path d="M17.6328018,12.9968109 C17.6583144,12.5849658 17.6328018,12.1785877 17.5708428,11.7922551 L23.0906606,10.9084282 C23.4879271,13.3904328 23.0469248,15.9763098 21.7749431,18.208656 L16.9075171,15.4551253 C17.3230068,14.7261959 17.5781321,13.8933941 17.6328018,12.9968109 Z" id="Shape" fill="#A5D9E7"></path>
                <path d="M4.81640091,4.05831435 C5.91708428,3.13439636 7.15079727,2.45649203 8.44646925,2.03006834 L10.2232346,7.33667426 C9.55079727,7.55535308 8.93849658,7.9070615 8.39726651,8.35170843 L4.81640091,4.05831435 Z" id="Shape" fill="#3482CB"></path>
            </g>
            <g id="Group" transform="translate(510.250569, 162.186788)">
                <path d="M26.5129841,20.8510251 C24.2059226,25.4596811 19.3366743,28.4920273 13.8697039,28.1840547 C11.2291572,28.0346241 8.81640091,27.1234624 6.82277904,25.6765376 L10.7079727,20.3170843 C13.1899772,22.1211845 16.6779043,22.0173121 19.0615034,19.8924829 C19.7066059,19.3111617 20.2223235,18.6314351 20.5867882,17.8970387 L26.5129841,20.8510251 Z" id="Shape" fill="#3482CB"></path>
                <path d="M27.8833713,15.6756264 C27.876082,15.8214123 27.8633257,15.9671982 27.8560364,16.1166287 L21.2592255,15.5207289 C21.4214123,13.7439636 20.8747153,11.9161731 19.5917995,10.4820046 C17.1389522,7.73211845 12.9330296,7.4952164 10.1831435,9.94624146 C8.23143508,11.690205 7.53895216,14.3307517 8.19681093,16.7015945 L1.82050114,18.4692483 C1.43963554,17.1061503 1.27198178,15.6519362 1.35580866,14.1649203 C1.77312073,6.84100228 8.05284738,1.23553531 15.3731207,1.6546697 C22.704328,2.07015945 28.3061503,8.35170843 27.8833713,15.6756264 Z" id="Shape" fill="#A5D9E7"></path>
                <path d="M9.64555809,19.3548975 C9.97175399,19.7230068 10.3271071,20.0437358 10.7079727,20.3170843 L6.82277904,25.6765376 C4.41548975,23.9343964 2.62414579,21.3940774 1.82050114,18.467426 L8.19681093,16.6997722 C8.46104784,17.6546697 8.93849658,18.5658314 9.64555809,19.3548975 Z" id="Shape" fill="#FFFFFF"></path>
                <path d="M27.8560364,16.1166287 C27.7047836,17.8077449 27.2328018,19.4132118 26.5129841,20.8528474 L20.5867882,17.898861 C20.9640091,17.1498861 21.1845103,16.3425968 21.2592255,15.5207289 L27.8560364,16.1166287 Z" id="Shape" fill="#3AAAD2"></path>
            </g>
            <g id="Group" transform="translate(512.072893, 122.095672)">
                <path d="M9.1498861,26.7498861 C4.54123007,24.4519362 1.50523918,19.5753986 1.81685649,14.1084282 C1.96264237,11.4697039 2.87744875,9.05512528 4.32801822,7.06879271 L9.6856492,10.9485194 C7.88154897,13.4323462 7.98359909,16.918451 10.1047836,19.2984055 C10.6915718,19.9507973 11.3676538,20.4646925 12.1056948,20.8236902 L9.1498861,26.7498861 Z" id="Shape" fill="#A5D9E7"></path>
                <path d="M14.3252847,28.1257403 C14.1794989,28.1202733 14.0300683,28.1038724 13.8842825,28.0874715 L14.4820046,21.5015945 C16.253303,21.6583144 18.0883827,21.109795 19.5170843,19.8287016 C22.2687927,17.3794989 22.5056948,13.1699317 20.0528474,10.4236902 C18.3052392,8.46287016 15.6665148,7.78132118 13.2974943,8.43553531 L11.5316629,2.05740319 C12.9002278,1.67835991 14.3471526,1.50888383 15.8341686,1.59088838 C23.1617312,2.00820046 28.7671982,8.28974943 28.3462415,15.6136674 C27.938041,22.9430524 21.6510251,28.5430524 14.3252847,28.1257403 Z" id="Shape" fill="#3482CB"></path>
                <path d="M10.6441913,9.88246014 C10.2779043,10.2104784 9.95535308,10.5712984 9.6856492,10.9485194 L4.32801822,7.06879271 C6.06651481,4.65421412 8.60501139,2.85922551 11.5334852,2.05740319 L13.2993166,8.43553531 C12.3425968,8.70159453 11.4332574,9.17722096 10.6441913,9.88246014 Z" id="Shape" fill="#3AAAD2"></path>
                <path d="M13.8842825,28.0874715 C12.1968109,27.943508 10.5876993,27.4715262 9.14806378,26.7498861 L12.1038724,20.8236902 C12.8510251,21.2045558 13.6601367,21.4287016 14.4820046,21.5015945 L13.8842825,28.0874715 Z" id="Shape" fill="#FFFFFF"></path>
            </g>
            <path d="M651.797722,431.258314 L632.12574,479.961731 C631.061503,482.598633 628.061959,483.872437 625.41959,482.8082 L558.687927,455.857859 C556.051025,454.7918 554.777221,451.794077 555.84328,449.153531 L575.515262,400.451936 C576.577677,397.809567 579.571754,396.539408 582.215945,397.603645 L648.949431,424.557631 C651.5918,425.62369 652.863781,428.621412 651.797722,431.258314 Z" id="Shape" fill="#ABB2B7" opacity="0.5"></path>
            <path d="M655.342141,425.610934 L638.308884,475.298405 C637.384966,477.988155 634.463781,479.422323 631.763098,478.496583 L563.68656,455.15262 C560.993166,454.225057 559.564465,451.303872 560.488383,448.612301 L577.523462,398.923007 C578.44738,396.22779 581.375854,394.797267 584.067426,395.719362 L652.147608,419.065148 C654.837358,419.992711 656.266059,422.915718 655.342141,425.610934 Z" id="Shape" fill="#CAD3DB" opacity="0.5"></path>
            <path d="M660.521185,417.949886 L646.680638,468.621412 C645.924374,471.367654 643.101595,472.978588 640.353531,472.229613 L570.923007,453.270159 C568.18041,452.519362 566.567654,449.692938 567.312984,446.943052 L581.151708,396.271526 C581.90615,393.530752 584.734396,391.912528 587.480638,392.663326 L656.907517,411.624601 C659.655581,412.377221 661.264692,415.203645 660.521185,417.949886 Z" id="Shape" fill="#DADADA"></path>
            <path d="M660.521185,417.949886 L657.446925,429.188155 L578.084738,407.517084 L581.151708,396.271526 C581.90615,393.530752 584.734396,391.912528 587.480638,392.663326 L656.907517,411.624601 C659.655581,412.377221 661.264692,415.203645 660.521185,417.949886 Z" id="Shape" fill="#ADB2B6"></path>
            <rect id="Rectangle-path" fill="#FFFFFF" transform="translate(617.341144, 420.131513) rotate(15.271702) translate(-617.341144, -420.131513) " x="576.207131" y="418.236272" width="82.2680255" height="3.79048141"></rect>
            <path d="M605.430524,404.041913 C604.532118,407.322096 601.146241,409.261048 597.864237,408.362642 C594.576765,407.466059 592.650569,404.076538 593.541686,400.798178 C594.440091,397.516173 597.829613,395.580866 601.109795,396.475626 C604.386333,397.377677 606.32164,400.759909 605.430524,404.041913 Z" id="Shape" fill="#57B2E3"></path>
            <circle id="Oval" fill="#57B2E3" cx="641.607289" cy="413.924374" r="6.1594533"></circle>
            <g id="Group" transform="translate(594.077449, 388.154897)" fill="#78C4D4">
                <path d="M5.41047836,18.4728929 C5.04783599,18.4728929 4.67061503,18.4309795 4.30432802,18.3271071 C2.05740319,17.7148064 0.734396355,15.4004556 1.34669704,13.1589977 L3.75216401,4.35535308 C4.36082005,2.11207289 6.68246014,0.770842825 8.92027335,1.39954442 C11.1653759,2.01366743 12.4883827,4.32984055 11.876082,6.57129841 L9.47425968,15.3767654 C8.96583144,17.2482916 7.26378132,18.4728929 5.41047836,18.4728929 Z" id="Shape"></path>
                <path d="M47.5334852,29.977221 C47.1635535,29.977221 46.7899772,29.9334852 46.4182232,29.8314351 C44.1767654,29.2173121 42.8501139,26.9029613 43.4660592,24.6578588 L45.8715262,15.8542141 C46.4820046,13.6072893 48.7963554,12.2751708 51.0487472,12.9002278 C53.2883827,13.5125285 54.6132118,15.8287016 53.9936219,18.0756264 L51.5917995,26.8792711 C51.0797267,28.7507973 49.3849658,29.977221 47.5334852,29.977221 Z" id="Shape"></path>
            </g>
            <rect id="Rectangle-path" fill="#57B2E3" transform="translate(587.383097, 424.324974) rotate(15.284266) translate(-587.383097, -424.324974) " x="583.38231" y="420.928268" width="8.00157474" height="6.79341167"></rect>
            <rect id="Rectangle-path" fill="#57B2E3" transform="translate(640.694030, 438.871374) rotate(15.260647) translate(-640.694030, -438.871374) " x="636.697834" y="435.474698" width="7.99239231" height="6.79335124"></rect>
            <rect id="Rectangle-path" fill="#57B2E3" transform="translate(627.439289, 435.231408) rotate(15.266174) translate(-627.439289, -435.231408) " x="623.434788" y="431.833732" width="8.00900341" height="6.79535238"></rect>
            <rect id="Rectangle-path" fill="#57B2E3" transform="translate(614.099445, 431.539346) rotate(15.284266) translate(-614.099445, -431.539346) " x="610.095924" y="428.141729" width="8.00704154" height="6.79523394"></rect>
            <rect id="Rectangle-path" fill="#57B2E3" transform="translate(600.891533, 427.934725) rotate(15.295319) translate(-600.891533, -427.934725) " x="596.887801" y="424.538751" width="8.00746385" height="6.7919476"></rect>
            <rect id="Rectangle-path" fill="#57B2E3" transform="translate(584.490729, 434.930912) rotate(15.260647) translate(-584.490729, -434.930912) " x="580.488155" y="431.531503" width="8.00514807" height="6.79881799"></rect>
            <rect id="Rectangle-path" fill="#57B2E3" transform="translate(637.970175, 449.615876) rotate(15.300846) translate(-637.970175, -449.615876) " x="633.967248" y="446.217991" width="8.0058527" height="6.79577162"></rect>
            <rect id="Rectangle-path" fill="#57B2E3" transform="translate(624.466991, 445.903748) rotate(15.284266) translate(-624.466991, -445.903748) " x="620.466204" y="442.50522" width="8.00157474" height="6.7970562"></rect>
            <rect id="Rectangle-path" fill="#57B2E3" transform="translate(611.212949, 442.159701) rotate(15.284266) translate(-611.212949, -442.159701) " x="607.213072" y="438.760261" width="7.99975248" height="6.79887847"></rect>
            <rect id="Rectangle-path" fill="#57B2E3" transform="translate(597.852233, 438.657282) rotate(15.289793) translate(-597.852233, -438.657282) " x="593.849518" y="435.256842" width="8.00543035" height="6.80088005"></rect>
            <rect id="Rectangle-path" fill="#57B2E3" transform="translate(581.772126, 445.619809) rotate(15.277229) translate(-581.772126, -445.619809) " x="577.770147" y="442.220131" width="8.00395814" height="6.79935515"></rect>
            <polygon id="Shape" fill="#57B2E3" points="637.964465 464.502961 630.239636 462.398178 632.032802 455.837813 639.759453 457.946241"></polygon>
            <rect id="Rectangle-path" fill="#57B2E3" transform="translate(621.637007, 456.454000) rotate(15.284266) translate(-621.637007, -456.454000) " x="617.63713" y="453.055472" width="7.99975248" height="6.7970562"></rect>
            <rect id="Rectangle-path" fill="#57B2E3" transform="translate(608.388477, 453.020873) rotate(15.259139) translate(-608.388477, -453.020873) " x="604.388251" y="449.622047" width="8.00045311" height="6.7976515"></rect>
            <rect id="Rectangle-path" fill="#57B2E3" transform="translate(594.989441, 449.125750) rotate(15.260647) translate(-594.989441, -449.125750) " x="590.987779" y="445.728164" width="8.00332582" height="6.79517349"></rect>
            <path d="M104.865604,400.331663 L111.17631,432.807289 C111.699317,435.495216 114.276082,437.233713 116.960364,436.712528 L184.741686,423.53713 C187.433257,423.014123 189.171754,420.441002 188.654214,417.753075 L182.336219,385.273804 C181.81139,382.585877 179.229157,380.82369 176.544875,381.346697 L108.765376,394.523918 C106.073804,395.04328 104.344419,397.641913 104.865604,400.331663 Z" id="Shape" fill="#3482CB"></path>
            <path d="M104.856492,400.304328 L105.200911,402.064692 L142.1959,416.357175 C146.159453,417.889749 150.653303,417.016856 153.75672,414.108428 L182.669704,387.012301 L182.336219,385.273804 C181.809567,382.584055 179.209112,380.829157 176.513895,381.353986 L108.765376,394.52574 C106.090205,395.037813 104.340774,397.629157 104.856492,400.304328 Z" id="Shape" fill="#57B2E3"></path>
            <circle id="Oval" fill="#549FFC" cx="114.143052" cy="435.905239" r="12.3444191"></circle>
            <path d="M278.505695,488.548519 L258.328929,508.723462 L238.157631,488.548519 C227.023235,477.414123 227.023235,459.345786 238.157631,448.207745 C249.295672,437.066059 267.365831,437.066059 278.507517,448.207745 C289.652847,459.349431 289.640091,477.412301 278.505695,488.548519 Z" id="Shape" fill="#3482CB"></path>
            <circle id="Oval" fill="#FFFFFF" cx="258.330752" cy="468.377221" r="9.77494305"></circle>
            <g id="Group" opacity="0.7" transform="translate(426.423690, 133.029613)">
                <path d="M27.6009112,4.35170843 C12.5047836,4.35170843 0.266059226,16.5904328 0.266059226,31.690205 C0.266059226,46.7863326 12.5047836,59.0268793 27.6009112,59.0268793 C42.5712984,59.0268793 54.7189066,46.9940774 54.9284738,32.0728929 L27.6009112,32.0728929 L27.6009112,4.35170843 Z" id="Shape" fill="#66717B"></path>
                <path d="M31.633713,1.01867882 L31.633713,28.7398633 L58.9612756,28.7398633 C58.9630979,28.6123007 58.9722096,28.484738 58.9722096,28.3553531 C58.9722096,13.2537585 46.7334852,1.01867882 31.633713,1.01867882 Z" id="Shape" fill="#78C4D4"></path>
            </g>
            <g id="Group" transform="translate(357.175399, 353.530752)">
                <rect id="Rectangle-path" fill="#DADADA" x="0.623234624" y="24.6924829" width="20.8419134" height="43.008656"></rect>
                <rect id="Rectangle-path" fill="#78C4D4" x="27.1599089" y="14.3526196" width="20.8400911" height="53.346697"></rect>
                <rect id="Rectangle-path" fill="#57B2E3" x="52.6378132" y="0.238724374" width="20.8400911" height="67.4624146"></rect>
            </g>
            <path d="M356.034624,612.690661 C356.034624,612.610478 356.034624,612.539408 356.034624,612.459226 C356.205923,591.958087 378.755353,582.092027 400.56492,572.552164 C422.230524,563.07426 442.689749,554.119362 442.846469,536.065604 C442.846469,535.994533 442.846469,535.927107 442.846469,535.859681 C442.846469,517.935308 422.602278,508.672437 401.177221,498.875626 C379.617312,489.005923 357.321185,478.802733 357.321185,458.456492 C357.321185,458.37631 357.321185,458.301595 357.321185,458.225057 L361.086105,458.256036 C361.086105,458.32164 361.086105,458.389066 361.086105,458.456492 C361.086105,476.38451 381.323007,485.643736 402.746241,495.449658 C424.311617,505.319362 446.607745,515.518907 446.607745,535.859681 C446.607745,535.939863 446.607745,536.016401 446.607745,536.091116 C446.434624,556.592255 423.881549,566.458314 402.073804,576.003645 C380.411845,585.479727 359.94533,594.430979 359.794077,612.488383 C359.794077,612.555809 359.794077,612.623235 359.794077,612.687016 C359.794077,630.622323 380.038269,639.881549 401.457859,649.683827 C423.023235,659.558998 445.321185,669.75672 445.321185,690.106606 C445.321185,690.183144 445.321185,690.257859 445.313895,690.338041 L441.554442,690.307062 C441.554442,690.241458 441.554442,690.168565 441.554442,690.106606 C441.554442,672.173121 421.31754,662.919362 399.896128,653.109795 C378.327107,643.241913 356.034624,633.040547 356.034624,612.690661 Z" id="Shape" fill="url(#linearGradient-3)"></path>
            <path d="M192.293394,106.509339 L182.819134,97.0405467 L186.348975,92.9512528 C184.738041,90.2979499 183.566287,87.4514806 182.853759,84.5193622 L177.468793,84.118451 L177.468793,70.7261959 L182.853759,70.3234624 C183.566287,67.391344 184.738041,64.5430524 186.348975,61.8933941 L182.819134,57.8041002 L192.293394,48.3316629 L196.380866,51.8596811 C199.039636,50.2432802 201.876993,49.0769932 204.816401,48.3626424 L205.21549,42.9813212 L218.609567,42.9813212 L219.012301,48.3626424 C221.940774,49.0769932 224.789066,50.2432802 227.440547,51.8596811 L231.533485,48.3316629 L241.000456,57.8041002 L237.476082,61.8933941 C239.088838,64.5430524 240.253303,67.391344 240.971298,70.3234624 L246.35262,70.7261959 L246.35262,84.118451 L240.971298,84.5193622 C240.253303,87.4514806 239.088838,90.2979499 237.476082,92.9512528 L241.000456,97.0405467 L231.533485,106.509339 L227.440547,102.984966 C224.789066,104.594077 221.940774,105.767654 219.012301,106.480182 L218.609567,111.863326 L205.21549,111.863326 L204.816401,106.480182 C201.876993,105.767654 199.035991,104.594077 196.380866,102.984966 L192.293394,106.509339 Z M217.784055,87.5553531 C218.646014,87.0578588 219.466059,86.4528474 220.200456,85.7129841 C220.934852,84.9731207 221.547153,84.1567198 222.046469,83.2965831 C224.149431,79.6738041 224.149431,75.1744875 222.046469,71.5498861 C221.548975,70.6842825 220.936674,69.8715262 220.202278,69.1316629 C219.466059,68.3917995 218.646014,67.7904328 217.784055,67.2856492 C214.159453,65.1845103 209.663781,65.1845103 206.037358,67.2856492 C205.175399,67.7886105 204.357175,68.3899772 203.620957,69.1316629 C202.881093,69.8715262 202.277904,70.6861048 201.773121,71.5498861 C199.673804,75.1744875 199.673804,79.6738041 201.773121,83.2965831 C202.276082,84.1585421 202.879271,84.9731207 203.620957,85.7129841 C204.357175,86.4510251 205.177221,87.0560364 206.037358,87.5553531 C209.663781,89.656492 214.159453,89.656492 217.784055,87.5553531 Z" id="Shape" fill="#57B2E3" opacity="0.6"></path>
            <path d="M147.803189,68.8747153 L145.002278,62.3908884 L147.526196,61.0697039 C147.249203,59.4587699 147.229157,57.8387244 147.451481,56.2569476 L144.889294,55.0159453 L147.491572,48.4519362 L150.210478,49.3029613 C151.128929,48.0018223 152.253303,46.833713 153.559909,45.847836 L152.626879,43.1580866 L159.108884,40.3571754 L160.430068,42.8810934 C162.042825,42.6059226 163.661048,42.5876993 165.242825,42.8045558 L166.483827,40.2441913 L173.049658,42.8446469 L172.198633,45.5635535 C173.49795,46.4838269 174.666059,47.6082005 175.653759,48.9129841 L178.341686,47.9817768 L181.142597,54.461959 L178.618679,55.7831435 C178.895672,57.3977221 178.913895,59.01959 178.693394,60.5977221 L181.255581,61.8405467 L178.649658,68.4045558 L175.938041,67.5571754 C175.015945,68.8583144 173.891572,70.0246014 172.584966,71.008656 L173.52164,73.7002278 L167.035991,76.501139 L165.716629,73.977221 C164.103872,74.2542141 162.480182,74.2742597 160.90205,74.0555809 L159.659226,76.614123 L153.095216,74.0082005 L153.946241,71.2947608 C152.646925,70.3763098 151.478815,69.2464692 150.491116,67.9453303 L147.803189,68.8747153 Z M163.979954,64.5357631 C164.499317,64.4610478 165.018679,64.3225513 165.525285,64.1038724 C166.031891,63.8851936 166.485649,63.6045558 166.895672,63.2801822 C168.632346,61.9061503 169.508884,59.7066059 169.180866,57.5179954 C169.10615,56.9986333 168.964009,56.484738 168.747153,55.9763098 C168.530296,55.4733485 168.246014,55.014123 167.92164,54.6041002 C166.554897,52.8692483 164.348064,51.9908884 162.163098,52.3189066 C161.64738,52.3972665 161.124374,52.5339408 160.617768,52.7544419 C160.116629,52.9694761 159.657403,53.2574032 159.24738,53.5799544 C157.510706,54.9485194 156.637813,57.1535308 156.965831,59.3366743 C157.040547,59.8578588 157.179043,60.377221 157.399544,60.8820046 C157.616401,61.3867882 157.904328,61.8405467 158.225057,62.2542141 C159.595444,63.9890661 161.796811,64.8637813 163.979954,64.5357631 Z" id="Shape" fill="#57B2E3" opacity="0.6"></path>
            <polygon id="Shape" fill="#3482CB" points="388.459226 307.697494 388.459226 327.061503 378.436446 336.92574 359.229157 336.92574 359.229157 307.697494"></polygon>
            <polyline id="Shape" fill="#005688" points="378.436446 336.92574 378.436446 327.061503 388.459226 327.061503"></polyline>
            <polygon id="Shape" fill="#DADADA" points="354.676993 307.697494 354.676993 327.061503 344.654214 336.92574 325.448747 336.92574 325.448747 307.697494"></polygon>
            <polyline id="Shape" fill="#66717B" points="344.654214 336.92574 344.654214 327.061503 354.676993 327.061503"></polyline>
            <path d="M340.57221,257.355809 C341.080638,257.563554 341.643736,257.627335 342.1959,257.527107 C343.181777,257.348519 344.010934,256.679727 344.3918,255.752164 L355.571754,233.49795 C356.187699,232 355.467882,230.292483 353.971754,229.67836 C352.473804,229.071526 350.766287,229.787699 350.152164,231.285649 L340.710706,249.26287 L334.943052,242.873804 C333.846014,241.682005 332,241.603645 330.804556,242.698861 C329.614579,243.78861 329.534396,245.641913 330.622323,246.831891 L339.520729,256.625057 C339.821412,256.949431 340.18041,257.195444 340.57221,257.355809 Z" id="Shape" fill="#66717B"></path>
            <path d="M376.074715,257.355809 C376.586788,257.563554 377.148064,257.627335 377.70205,257.527107 C378.686105,257.348519 379.515262,256.679727 379.894305,255.752164 L391.077904,233.49795 C391.692027,232 390.974032,230.292483 389.476082,229.67836 C387.978132,229.071526 386.268793,229.787699 385.656492,231.285649 L376.216856,249.26287 L370.44738,242.873804 C369.350342,241.682005 367.504328,241.603645 366.308884,242.698861 C365.118907,243.78861 365.040547,245.641913 366.128474,246.831891 L375.025057,256.625057 C375.32574,256.949431 375.684738,257.195444 376.074715,257.355809 Z" id="Shape" fill="#66717B"></path>
        </g>
    </g>
</svg>