<?xml version="1.0" encoding="utf-8"?>
<!-- Generator: Adobe Illustrator 16.0.0, SVG Export Plug-In . SVG Version: 6.00 Build 0)  -->
<!DOCTYPE svg PUBLIC "-//W3C//DTD SVG 1.1//EN" "http://www.w3.org/Graphics/SVG/1.1/DTD/svg11.dtd">
<svg version="1.1" id="Layer_1" xmlns="http://www.w3.org/2000/svg" xmlns:xlink="http://www.w3.org/1999/xlink" x="0px" y="0px"
	 width="900px" height="529px" viewBox="0 0 900 529" enable-background="new 0 0 900 529" xml:space="preserve">
<title>fons-teknedata-4-no-cloud</title>
<desc>Created with Sketch.</desc>
<g id="Group" transform="translate(470.254403, 209.589041)">
	<g id="Shape">
		<polygon fill="#8EC047" points="3.373,42.854 0.447,38.68 36.749,10.489 60.336,27.475 98.01,0.305 100.795,4.584 60.336,33.759 
			36.853,16.851 		"/>
		<polygon fill="#8EC047" points="101.137,13.672 97.197,13.672 97.197,4.52 88.503,4.52 88.503,0.371 101.137,0.371 		"/>
	</g>
	<ellipse id="Oval" fill="#CDCCCC" cx="60.024" cy="29.64" rx="5.419" ry="5.706"/>
	<ellipse id="Oval_1_" fill="#CDCCCC" cx="36.88" cy="13.671" rx="5.416" ry="5.704"/>
</g>
<g id="Group_1_" transform="translate(366.340509, 209.589041)">
	<rect id="Rectangle-path" x="0.083" y="0.642" fill="#CDCCCC" width="5.391" height="59.117"/>
	<rect id="Rectangle-path_1_" x="0.068" y="59.76" fill="#CDCCCC" width="92.327" height="5.563"/>
	<g id="Rectangle-path_2_" transform="translate(10.155741, 21.328573)">
		<rect x="1.105" y="12.145" fill="#8EC047" width="8.265" height="26.289"/>
		<rect x="1.105" y="-1" opacity="0.5" fill="#8EC047" enable-background="new    " width="8.265" height="13.143"/>
	</g>
	<g id="Rectangle-path_3_" transform="translate(26.145629, 14.709360)">
		<rect x="0.522" y="7.377" fill="#8EC047" width="8.265" height="37.673"/>
		<rect x="0.522" y="-0.154" opacity="0.5" fill="#8EC047" enable-background="new    " width="8.265" height="7.534"/>
	</g>
	<g id="Rectangle-path_4_" transform="translate(41.055120, 26.967161)">
		<rect x="1.026" y="13.665" fill="#8EC047" width="8.265" height="19.127"/>
		<rect x="1.026" y="-0.066" opacity="0.5" fill="#8EC047" enable-background="new    " width="8.265" height="13.731"/>
	</g>
	<g id="Rectangle-path_5_" transform="translate(57.045010, 38.489495)">
		<rect x="0.449" y="10.314" fill="#8EC047" width="8.269" height="10.956"/>
		<rect x="0.449" y="-0.64" opacity="0.5" fill="#8EC047" enable-background="new    " width="8.269" height="10.954"/>
	</g>
</g>
<g id="Group_2_" transform="translate(265.949119, 209.589041)">
	<path id="Shape_1_" fill="#A7DAE8" d="M45.936,37.548c-0.648,2.016-1.688,3.825-3.081,5.342l10.497,14.813
		c5.309-4.621,9.118-10.937,10.561-18.137L45.936,37.548z"/>
	<path id="Shape_2_" fill="#0178B2" d="M35.223,18.766c6.113,1.289,10.752,6.5,11.36,12.892l17.947,2.003
		c0-0.206,0.029-0.404,0.029-0.612c0-17.004-12.889-30.958-29.337-32.462V18.766z"/>
	<path id="Shape_3_" fill="#39A8E0" d="M21.664,23.27c1.996-2.241,4.644-3.864,7.7-4.504V0.586
		C19.773,1.454,11.444,6.56,6.111,14.021L21.664,23.27z"/>
	<path id="Shape_4_" fill="#8EC047" d="M38.113,46.357c-1.784,0.806-3.751,1.267-5.831,1.267c-7.963,0-14.417-6.534-14.417-14.578
		c0-1.646,0.326-3.195,0.824-4.665L3.14,19.125c-1.979,4.229-3.133,8.931-3.133,13.923c0,18.014,14.452,32.606,32.274,32.606
		c5.956,0,11.513-1.646,16.301-4.499L38.113,46.357z"/>
</g>
<g id="Shape_6_">
	
		<linearGradient id="SVGID_1_" gradientUnits="userSpaceOnUse" x1="151.6228" y1="663.7246" x2="152.6453" y2="663.7246" gradientTransform="matrix(174.9583 0 0 -7.5521 -26286.6855 5511.749)">
		<stop  offset="0.0061" style="stop-color:#5A5A5C"/>
		<stop  offset="0.3132" style="stop-color:#78787B"/>
		<stop  offset="0.5091" style="stop-color:#88898C"/>
		<stop  offset="1" style="stop-color:#5A5A5C"/>
	</linearGradient>
	<path fill="url(#SVGID_1_)" d="M241.959,495.488v0.166c0,0.059,0,0.116,0,0.174v0.059c0,3.386,4.785,7.154,18.68,7.154
		c26.881,0,55.995,0,66.63,0c2.703,0,4.219,0,4.219,0c10.644,0,39.769,0,66.64,0c13.885,0,18.746-7.553,18.79-7.553h-1.302H241.959z
		"/>
	
		<linearGradient id="SVGID_2_" gradientUnits="userSpaceOnUse" x1="152.1296" y1="682.3613" x2="152.1296" y2="681.1463" gradientTransform="matrix(175.0789 0 0 -57.899 -26306.2031 39941.4727)">
		<stop  offset="0.0848" style="stop-color:#6E7074"/>
		<stop  offset="0.1172" style="stop-color:#8A8C8F"/>
		<stop  offset="0.1809" style="stop-color:#C5C6C8"/>
		<stop  offset="0.2121" style="stop-color:#DEE0E1"/>
		<stop  offset="0.3152" style="stop-color:#A6A8AB"/>
		<stop  offset="0.3903" style="stop-color:#858688"/>
		<stop  offset="0.4606" style="stop-color:#636363"/>
		<stop  offset="0.5271" style="stop-color:#6E6F6F"/>
		<stop  offset="0.6472" style="stop-color:#8B8D8F"/>
		<stop  offset="0.7394" style="stop-color:#A5A9AC"/>
	</linearGradient>
	<path fill="url(#SVGID_2_)" d="M399.072,475.008c-12.398-13.07-12.868-37.416-12.868-37.416h-55.647h-4.214h-55.648
		c0,0-0.474,24.346-12.862,37.416c-12.403,13.064-31.799,20.483,1.868,20.483c26.882,0,55.996,0,66.645,0c2.688,0,4.214,0,4.214,0
		c10.649,0,39.769,0,66.646,0C430.86,495.488,411.462,488.072,399.072,475.008z"/>
	
		<radialGradient id="SVGID_3_" cx="148.2258" cy="677.627" r="2.0938" gradientTransform="matrix(29.1358 0 0 -29.1357 -3904.8982 20267.4375)" gradientUnits="userSpaceOnUse">
		<stop  offset="0" style="stop-color:#FFFFFF"/>
		<stop  offset="1" style="stop-color:#FFFFFF;stop-opacity:0"/>
	</radialGradient>
	<path fill="url(#SVGID_3_)" d="M339.521,495.488c6.871-12.587,28.835-26.374,56.152-29.136c1.245,2.198,2.686,3.122,4.333,4.854
		c12.169,12.834,31.109,24.282-0.153,24.282H339.521z"/>
	
		<radialGradient id="SVGID_4_" cx="157.7742" cy="688.3965" r="2.0938" gradientTransform="matrix(-29.1358 0 0 29.1357 4841.835 -19532.7031)" gradientUnits="userSpaceOnUse">
		<stop  offset="0" style="stop-color:#FFFFFF"/>
		<stop  offset="1" style="stop-color:#FFFFFF;stop-opacity:0"/>
	</radialGradient>
	<path fill="url(#SVGID_4_)" d="M319.245,495.488c-6.871-12.587-28.84-26.374-56.151-29.136c-1.246,2.198-2.687,3.122-4.333,4.854
		c-12.17,12.834-31.11,24.282,0.152,24.282H319.245z"/>
	
		<linearGradient id="SVGID_5_" gradientUnits="userSpaceOnUse" x1="151.4045" y1="520.9033" x2="152.4045" y2="520.9033" gradientTransform="matrix(139.2139 0 0 -0.9591 -20818.7813 999.5309)">
		<stop  offset="0.0061" style="stop-color:#FFFFFF;stop-opacity:0"/>
		<stop  offset="0.5091" style="stop-color:#FFFFFF"/>
		<stop  offset="1" style="stop-color:#FFFFFF;stop-opacity:0"/>
	</linearGradient>
	<path fill="url(#SVGID_5_)" d="M258.911,499.927c11.601-0.199,23.198-0.295,34.798-0.37l34.813-0.108l34.798,0.108l17.396,0.134
		l17.41,0.236l-17.41,0.236l-17.396,0.129l-34.798,0.115l-34.813-0.115C282.11,500.214,270.512,500.125,258.911,499.927z"/>
	
		<linearGradient id="SVGID_6_" gradientUnits="userSpaceOnUse" x1="152.2161" y1="681.584" x2="153.3039" y2="682.2822" gradientTransform="matrix(571.7354 0 0 -60.4163 -86992.2813 41605.4609)">
		<stop  offset="0" style="stop-color:#78797D"/>
		<stop  offset="0.318" style="stop-color:#737579"/>
		<stop  offset="0.4909" style="stop-color:#6E7074"/>
		<stop  offset="1" style="stop-color:#6E7074"/>
	</linearGradient>
	<path fill="url(#SVGID_6_)" d="M44.893,416.698c0,9.611,7.454,20.892,16.75,20.892h260.95h8.895h260.959
		c9.299,0,24.181-11.28,24.181-20.892v-39.524H44.893V416.698z"/>
	<path fill="#231E21" d="M592.445,29.779h-260.96h-8.895H61.641c-9.294,0-16.751,10.5-16.751,20.119v327.275h571.735V49.898
		C616.627,40.279,601.743,29.779,592.445,29.779z M585,352H69.222V54.953H585V352z"/>
	
		<linearGradient id="SVGID_7_" gradientUnits="userSpaceOnUse" x1="152.2156" y1="681.584" x2="153.3032" y2="682.282" gradientTransform="matrix(571.7354 0 0 -60.4163 -86992.2813 41605.4609)">
		<stop  offset="0" style="stop-color:#898B90"/>
		<stop  offset="0.006" style="stop-color:#8A8B90"/>
		<stop  offset="0.282" style="stop-color:#ABACB0"/>
		<stop  offset="0.5463" style="stop-color:#C5C6C9"/>
		<stop  offset="0.7918" style="stop-color:#D5D7D9"/>
		<stop  offset="1" style="stop-color:#DADCDE"/>
	</linearGradient>
	<path fill="url(#SVGID_7_)" d="M44.893,414.758c0,9.618,7.454,22.832,16.75,22.832h260.95h8.895h260.959
		c9.299,0,24.181-13.217,24.181-22.832v-37.584H44.893V414.758z"/>
</g>
<rect id="Rectangle-path_6_" x="69.222" y="82.644" fill="#8EC047" width="515.778" height="110.764"/>
<g id="Shape_7_" transform="translate(70.554579, 75.520370)">
	<path fill="#FFFFFF" d="M109.092,64.65c0,16.954-13.281,30.689-29.664,30.689c-16.371,0-29.66-13.735-29.66-30.689
		c0-16.942,13.291-30.684,29.66-30.684C95.811,33.966,109.092,47.708,109.092,64.65z"/>
	<path fill="none" stroke="#FFFFFF" stroke-width="0.4837" d="M114.376,64.954c0,19.885-15.559,35.991-34.764,35.991
		c-19.215,0-34.793-16.106-34.793-35.991c0-19.874,15.575-35.98,34.793-35.98C98.821,28.974,114.376,45.083,114.376,64.954z"/>
</g>
<g id="Rectangle-path_7_" transform="translate(197.066239, 78.037716)">
	<rect x="44.893" y="29.78" fill="#FFFFFF" width="38.926" height="12.586"/>
	<rect x="95.984" y="29.78" fill="#FFFFFF" width="260.322" height="12.586"/>
</g>
<rect id="Rectangle-path_8_" x="241.959" y="135.508" fill="#D5E29C" width="311.412" height="5.035"/>
<rect id="Rectangle-path_9_" x="238.405" y="160.682" fill="#D5E29C" width="316.014" height="1.761"/>
<rect id="Rectangle-path_10_" x="166.538" y="205.994" fill="#4F4F4F" width="63.256" height="130.902"/>
<rect id="Rectangle-path_11_" x="83.82" y="205.994" fill="#4F4F4F" width="68.121" height="130.902"/>
<g id="Rectangle-path_12_" transform="translate(204.364987, 249.217221)">
	<rect x="49.758" y="29.779" fill="#686868" width="94.884" height="7.553"/>
	<rect x="49.758" y="37.332" fill="#999898" width="63.256" height="5.035"/>
	<rect x="45.742" y="49.919" fill="#999898" width="81.936" height="1.761"/>
</g>
<g id="Rectangle-path_13_" transform="translate(316.279147, 249.217221)">
	<rect x="52.191" y="37.332" fill="#999898" width="82.72" height="5.035"/>
	<rect x="45.014" y="49.919" fill="#999898" width="64.382" height="1.761"/>
	<rect x="52.191" y="29.779" fill="#686868" width="94.884" height="7.553"/>
</g>
<g id="Rectangle-path_14_" transform="translate(428.193306, 249.217221)">
	<rect x="49.758" y="37.332" fill="#999898" width="63.256" height="5.035"/>
	<rect x="44.301" y="49.919" fill="#999898" width="76.067" height="1.761"/>
	<rect x="49.758" y="29.779" fill="#686868" width="94.884" height="7.553"/>
</g>
<rect id="Rectangle-path_15_" x="250.107" y="311.723" fill="#999898" width="64.372" height="1.761"/>
<rect id="Rectangle-path_16_" x="249.229" y="319.274" fill="#999898" width="99.206" height="1.761"/>
<rect id="Rectangle-path_17_" x="254.123" y="324.309" fill="#999898" width="94.884" height="7.553"/>
<rect id="Rectangle-path_18_" x="254.123" y="336.896" fill="#999898" width="94.884" height="7.552"/>
<rect id="Rectangle-path_19_" x="361.293" y="311.723" fill="#999898" width="64.382" height="1.761"/>
<rect id="Rectangle-path_20_" x="360.339" y="319.274" fill="#999898" width="99.222" height="1.761"/>
<rect id="Rectangle-path_21_" x="368.47" y="324.309" fill="#999898" width="94.884" height="7.553"/>
<rect id="Rectangle-path_22_" x="368.47" y="336.896" fill="#999898" width="94.884" height="7.552"/>
<rect id="Rectangle-path_23_" x="472.494" y="311.723" fill="#999898" width="64.367" height="1.761"/>
<rect id="Rectangle-path_24_" x="474.609" y="319.274" fill="#999898" width="91.368" height="1.761"/>
<rect id="Rectangle-path_25_" x="477.951" y="324.309" fill="#999898" width="87.585" height="7.553"/>
<rect id="Rectangle-path_26_" x="477.951" y="331.861" fill="#999898" width="63.256" height="5.034"/>
<rect id="Rectangle-path_27_" x="477.951" y="336.896" fill="#999898" width="87.585" height="7.552"/>
<polygon id="Shape_8_" opacity="0.3" fill="#FFFFFF" enable-background="new    " points="69.937,54.953 585,54.953 585,357.757 "/>
<path id="Shape_10_" fill="#020303" d="M807.341,476.551c0,6.335-3.678,11.473-8.208,11.473H457.924
	c-4.521,0-8.197-5.138-8.197-11.473V248.644c0-6.337,3.677-11.464,8.197-11.464h341.212c4.53,0,8.207,5.127,8.207,11.464v227.907
	H807.341z"/>
<rect id="Rectangle-path_28_" x="463.985" y="250.945" fill="#FFFFFF" width="330.068" height="211.855"/>
<g id="Shape_17_" transform="translate(23.641809, 242.298319)">
	<g id="Group_4_" transform="translate(0.000000, 0.762615)">
		<path id="Shape_11_" fill="#626969" d="M365.175,248.428c0,0-2.969,5.758,18.168,10.573h442.536c0,0,14.819-0.987,18.718-8.257
			l0.024-3.984L365.175,248.428z"/>
		
			<linearGradient id="Shape_5_" gradientUnits="userSpaceOnUse" x1="128.5406" y1="430.5348" x2="129.5406" y2="430.5348" gradientTransform="matrix(479.8345 0 0 -14.389 -61313.3633 6438.9458)">
			<stop  offset="0" style="stop-color:#9A9B9C"/>
			<stop  offset="0.001" style="stop-color:#A5A6A7"/>
			<stop  offset="0.0038" style="stop-color:#C2C0C2"/>
			<stop  offset="0.0067" style="stop-color:#D7D5D7"/>
			<stop  offset="0.0099" style="stop-color:#E7E5E8"/>
			<stop  offset="0.0135" style="stop-color:#F1EFF2"/>
			<stop  offset="0.0183" style="stop-color:#F4F2F5"/>
			<stop  offset="0.0488" style="stop-color:#DEE0E1"/>
			<stop  offset="0.189" style="stop-color:#D1D1D1"/>
			<stop  offset="0.5061" style="stop-color:#E2E4E6"/>
			<stop  offset="0.872" style="stop-color:#D1D1D1"/>
			<stop  offset="0.9512" style="stop-color:#DEE0E1"/>
			<stop  offset="0.9878" style="stop-color:#F4F2F5"/>
			<stop  offset="1" style="stop-color:#9A9B9C"/>
		</linearGradient>
		<path id="Shape_12_" fill="url(#Shape_5_)" d="M365.274,236.769h479.502v12.829c0,0,0.713,1.711-4.934,1.283H369.786
			c0,0-4.409,1.292-4.815-1.709L365.274,236.769z"/>
		<path id="Shape_13_" fill="#626969" d="M822.503,244.258c0,0.499-0.323,0.906-0.712,0.906h-16.306
			c-0.398,0-0.713-0.407-0.713-0.906c0-0.496,0.314-0.896,0.713-0.896h16.306C822.183,243.36,822.503,243.759,822.503,244.258z"/>
	</g>
	
		<linearGradient id="SVGID_8_" gradientUnits="userSpaceOnUse" x1="127.0269" y1="419.5425" x2="127.0269" y2="420.5415" gradientTransform="matrix(65.4086 0 0 -7.0803 -7703.7822 3215.2195)">
		<stop  offset="0.3415" style="stop-color:#6A6D6D"/>
		<stop  offset="0.4266" style="stop-color:#8A8B8B"/>
		<stop  offset="0.5293" style="stop-color:#ACAEAE"/>
		<stop  offset="0.6295" style="stop-color:#C7C9C9"/>
		<stop  offset="0.7251" style="stop-color:#D8DADB"/>
		<stop  offset="0.811" style="stop-color:#DEE0E1"/>
		<stop  offset="0.9817" style="stop-color:#E2E4E6"/>
	</linearGradient>
	<path fill="url(#SVGID_8_)" d="M572.449,237.64c0,0-1.834,6.411,4.321,7.057h55.628c0,0,5.909,0.8,5.134-6.841L572.449,237.64z"/>
	<g id="Group_5_" transform="translate(206.704788, 0.000000)">
		
			<linearGradient id="Shape_9_" gradientUnits="userSpaceOnUse" x1="-117.6808" y1="417.9575" x2="-117.6808" y2="418.9575" gradientTransform="matrix(3.7804 0 0 -6.6082 811.9553 3006.0461)">
			<stop  offset="0.0244" style="stop-color:#626969"/>
			<stop  offset="0.4756" style="stop-color:#6A6D6D"/>
			<stop  offset="0.5098" style="stop-color:#727474"/>
			<stop  offset="0.6167" style="stop-color:#87898A"/>
			<stop  offset="0.719" style="stop-color:#959697"/>
			<stop  offset="0.811" style="stop-color:#9A9B9C"/>
		</linearGradient>
		<path id="Shape_14_" fill="url(#Shape_9_)" d="M366.063,237.638h0.039l0.034-0.154h-0.693c0,0-1.673,5.563,3.523,6.607
			C364.524,242.748,366.063,237.638,366.063,237.638z"/>
		
			<linearGradient id="Shape_23_" gradientUnits="userSpaceOnUse" x1="-79.797" y1="417.8628" x2="-79.797" y2="418.8628" gradientTransform="matrix(62.2128 0 0 -6.582 5364.4766 2994.7908)">
			<stop  offset="0.0244" style="stop-color:#626969"/>
			<stop  offset="0.4756" style="stop-color:#6A6D6D"/>
			<stop  offset="0.5098" style="stop-color:#727474"/>
			<stop  offset="0.6167" style="stop-color:#87898A"/>
			<stop  offset="0.719" style="stop-color:#959697"/>
			<stop  offset="0.811" style="stop-color:#9A9B9C"/>
		</linearGradient>
		<path id="Shape_15_" fill="url(#Shape_23_)" d="M431.133,237.843l-0.598-0.005v0.154c0.428,7.208-5.148,6.233-5.148,6.233h-55.623
			c-0.289-0.033-0.547-0.078-0.798-0.137c0.399,0.137,0.873,0.232,1.41,0.283h55.623
			C425.999,244.375,431.746,245.393,431.133,237.843z"/>
		
			<linearGradient id="Shape_27_" gradientUnits="userSpaceOnUse" x1="-7914.9717" y1="-573.2886" x2="-7914.9717" y2="-573.2276" gradientTransform="matrix(0.0195 0 0 -0.1544 584.5112 149.3064)">
			<stop  offset="0.0244" style="stop-color:#626969"/>
			<stop  offset="0.4756" style="stop-color:#6A6D6D"/>
			<stop  offset="0.5098" style="stop-color:#727474"/>
			<stop  offset="0.6167" style="stop-color:#87898A"/>
			<stop  offset="0.719" style="stop-color:#959697"/>
			<stop  offset="0.811" style="stop-color:#9A9B9C"/>
		</linearGradient>
		<path id="Shape_16_" fill="url(#Shape_27_)" d="M430.535,237.993v-0.154h-0.02C430.516,237.888,430.516,237.934,430.535,237.993z"
			/>
	</g>
</g>
<polygon id="Shape_18_" fill="#8EC047" points="793.441,334.775 463.7,334.363 463.126,266.916 793.441,266.863 "/>
<g transform="translate(128.886515, 39.747540)">
	<path id="Shape_19_" fill="#FFFFFF" d="M406.273,260.4c0,10.923-8.497,19.778-19,19.778c-10.491,0-19-8.855-19-19.778
		c0-10.921,8.507-19.779,19-19.779C397.773,240.621,406.273,249.479,406.273,260.4z"/>
	<ellipse id="Oval_2_" fill="none" stroke="#FFFFFF" stroke-width="0.31" cx="387.384" cy="260.607" rx="22.283" ry="23.2"/>
</g>
<g id="Rectangle-path_29_" transform="translate(206.704788, 40.510155)">
	<rect x="365.44" y="237.612" fill="#FFFFFF" width="31.613" height="7.596"/>
	<rect x="401.918" y="237.612" fill="#FFFFFF" width="165.363" height="7.596"/>
</g>
<rect id="Rectangle-path_30_" x="571.288" y="298.377" fill="#D5E29C" width="204.733" height="1.762"/>
<rect id="Rectangle-path_31_" x="571.288" y="311.037" fill="#D5E29C" width="204.733" height="1.761"/>
<rect id="Rectangle-path_32_" x="477.304" y="336.355" fill="#4F4F4F" width="36.477" height="93.68"/>
<rect id="Rectangle-path_33_" x="525.94" y="336.355" fill="#4F4F4F" width="38.909" height="93.68"/>
<rect id="Rectangle-path_34_" x="577.932" y="409.78" fill="#999898" width="47.586" height="1.761"/>
<rect id="Rectangle-path_35_" x="577.932" y="417.376" fill="#999898" width="67.433" height="1.761"/>
<g id="Rectangle-path_36_" transform="translate(211.568430, 200.018895)">
	<rect x="365.44" y="237.612" fill="#686868" width="77.818" height="5.063"/>
	<rect x="366.768" y="242.675" fill="#999898" width="45.657" height="1.762"/>
</g>
<rect id="Rectangle-path_37_" x="577.008" y="450.29" fill="#999898" width="51.068" height="5.064"/>
<rect id="Rectangle-path_38_" x="577.932" y="455.354" fill="#999898" width="67.433" height="1.761"/>
<g id="Rectangle-path_39_" transform="translate(284.523062, 200.018895)">
	<rect x="370.303" y="237.612" fill="#686868" width="63.228" height="5.063"/>
	<rect x="365.566" y="242.675" fill="#999898" width="45.662" height="1.762"/>
</g>
<rect id="Rectangle-path_40_" x="654.826" y="450.29" fill="#999898" width="43.773" height="5.064"/>
<rect id="Rectangle-path_41_" x="649.33" y="455.354" fill="#999898" width="63.471" height="1.761"/>
<g id="Rectangle-path_42_" transform="translate(356.801293, 200.018895)">
	<rect x="366.116" y="237.612" fill="#686868" width="58.364" height="5.063"/>
	<rect x="365.047" y="242.675" fill="#999898" width="45.657" height="1.762"/>
</g>
<rect id="Rectangle-path_43_" x="722.917" y="450.29" fill="#999898" width="46.205" height="5.064"/>
<rect id="Rectangle-path_44_" x="720.727" y="455.354" fill="#999898" width="63.471" height="1.761"/>
<rect id="Rectangle-path_45_" x="577.008" y="422.439" fill="#999898" width="77.818" height="7.596"/>
<rect id="Rectangle-path_46_" x="580.384" y="430.035" fill="#999898" width="44.665" height="1.762"/>
<rect id="Rectangle-path_47_" x="577.932" y="437.631" fill="#999898" width="67.433" height="1.762"/>
<rect id="Rectangle-path_48_" x="649.33" y="409.78" fill="#999898" width="47.596" height="1.761"/>
<rect id="Rectangle-path_49_" x="649.33" y="417.376" fill="#999898" width="63.471" height="1.761"/>
<rect id="Rectangle-path_50_" x="654.826" y="422.439" fill="#999898" width="55.932" height="7.596"/>
<rect id="Rectangle-path_51_" x="722.917" y="422.439" fill="#999898" width="58.364" height="7.596"/>
<rect id="Rectangle-path_52_" x="649.864" y="430.035" fill="#999898" width="44.685" height="1.762"/>
<rect id="Rectangle-path_53_" x="649.33" y="437.631" fill="#999898" width="63.471" height="1.762"/>
<rect id="Rectangle-path_54_" x="723.377" y="417.376" fill="#999898" width="58.487" height="1.761"/>
<rect id="Rectangle-path_55_" x="720.727" y="437.631" fill="#999898" width="63.471" height="1.762"/>
<polygon id="Shape_20_" opacity="0.3" fill="#FFFFFF" enable-background="new    " points="465.147,245.208 793.441,245.208 
	793.441,441.664 "/>
<rect id="Rectangle-path_56_" x="477.304" y="437.631" fill="#8EC047" width="87.545" height="17.724"/>
<polygon id="Shape_21_" fill="#FFFFFF" points="871.472,254.172 700.678,254.172 701.176,23.784 871.608,23.54 "/>
<path id="Shape_22_" fill="#231E21" d="M888.214,11.704c0-6.222-4.871-11.271-10.889-11.271H691.244
	c-6.017,0-10.893,5.046-10.893,11.271v256.655c0,6.223,4.876,11.262,10.893,11.262h186.081c6.018,0,10.889-5.037,10.889-11.262
	V11.704z M871.508,256.048l-170.52-0.141V24.947l170.857-0.36L871.508,256.048z"/>
<g transform="translate(36.496055, 45.326777)">
	<polygon id="Shape_24_" fill="#8EC047" points="835.864,80.314 666.615,80.976 666.615,-0.084 836.2,0.423 	"/>
	<g id="Shape_25_" transform="translate(4.194322, 5.036308)">
		<path fill="#FFFFFF" d="M715.848,28.269c0,13.258-10.212,24.003-22.839,24.003c-12.589,0-22.815-10.748-22.815-24.003
			c0-13.261,10.227-24.001,22.815-24.001C705.634,4.265,715.848,15.008,715.848,28.269z"/>
		<path fill="none" stroke="#FFFFFF" stroke-width="0.3752" d="M719.918,28.505c0,15.552-11.98,28.153-26.769,28.153
			c-14.783,0-26.769-12.601-26.769-28.153c0-15.537,11.985-28.15,26.769-28.15C707.941,0.355,719.918,12.966,719.918,28.505z"/>
	</g>
	<g id="Rectangle-path_57_" transform="translate(72.992112, 17.627079)">
		<rect x="666.615" y="2.357" fill="#FFFFFF" width="7.299" height="7.555"/>
		<rect x="676.347" y="-0.161" fill="#FFFFFF" width="63.26" height="5.036"/>
	</g>
	<rect id="Rectangle-path_58_" x="736.94" y="37.611" fill="#D5E29C" width="72.289" height="1.761"/>
	<rect id="Rectangle-path_59_" x="737.173" y="37.611" fill="#D5E29C" width="75.426" height="5.037"/>
</g>
<g id="Rectangle-path_60_" transform="translate(41.362196, 186.343420)">
	<rect x="669.967" y="-0.161" fill="#686868" width="70.221" height="1.761"/>
	<rect x="667.114" y="7.393" fill="#999898" width="51.603" height="1.761"/>
	<rect x="669.967" y="14.948" fill="#999898" width="52.671" height="1.761"/>
</g>
<rect id="Rectangle-path_61_" x="708.476" y="206.327" fill="#999898" width="51.603" height="1.761"/>
<rect id="Rectangle-path_62_" x="708.476" y="206.327" fill="#999898" width="71.446" height="1.761"/>
<g id="Rectangle-path_63_" transform="translate(119.220450, 186.343420)">
	<rect x="666.615" y="7.393" fill="#999898" width="63.26" height="7.555"/>
	<rect x="668.181" y="14.948" fill="#999898" width="46.827" height="1.761"/>
	<rect x="668.629" y="-0.161" fill="#686868" width="67.483" height="1.761"/>
</g>
<rect id="Rectangle-path_64_" x="786.769" y="206.327" fill="#999898" width="45.682" height="1.761"/>
<rect id="Rectangle-path_65_" x="787.402" y="206.327" fill="#999898" width="70.235" height="1.761"/>
<rect id="Rectangle-path_66_" x="785.835" y="218.918" fill="#999898" width="77.858" height="7.555"/>
<rect id="Rectangle-path_67_" x="786.056" y="226.473" fill="#999898" width="47.798" height="1.761"/>
<rect id="Rectangle-path_68_" x="787.85" y="226.473" fill="#999898" width="67.483" height="1.761"/>
<g id="Rectangle-path_69_" transform="translate(120.981702, 239.224660)">
	<rect x="666.42" y="14.947" fill="#999898" width="46.827" height="1.762"/>
	<rect x="666.42" y="-0.161" fill="#686868" width="70.235" height="1.761"/>
</g>
<polygon id="Shape_26_" opacity="0.3" fill="#FFFFFF" enable-background="new    " points="871.737,251.674 871.608,22.502 
	739.478,22.502 "/>
<rect id="Rectangle-path_70_" x="28.18" y="326.593" fill="#FFFFFF" stroke="#FFFFFF" stroke-width="3" width="75.734" height="144.423"/>
<path id="Shape_28_" fill="#231E21" d="M108.757,317.658c0-7.29-5.687-13.199-12.688-13.199H32.376
	c-7.014,0-12.688,5.909-12.688,13.199V487.45c0,7.304,5.676,13.212,12.688,13.212H96.07c7.004,0,12.688-5.911,12.688-13.212V317.658
	z M73.535,321.764c0,1.16-0.899,2.094-1.994,2.094H57.945c-1.104,0-2.009-0.934-2.009-2.094v-0.129c0-1.158,0.905-2.085,2.009-2.085
	h13.597c1.095,0,1.994,0.927,1.994,2.085V321.764z M102.542,472.631H26.945V332.483h75.598V472.631z"/>
<g id="Group_9_" transform="translate(29.941292, 336.399217)">
	<rect id="Rectangle-path_71_" x="0.872" y="-0.174" fill="#8EC047" width="71.507" height="52.117"/>
	<g id="Shape_29_" transform="translate(0.000000, 14.170077)">
		<path fill="#FFFFFF" d="M33.535,17.872c0,8.654-6.781,15.665-15.165,15.665c-8.388,0-15.164-7.011-15.164-15.665
			c0-8.645,6.776-15.654,15.164-15.654C26.753,2.218,33.535,9.23,33.535,17.872z"/>
		<path fill="none" stroke="#FFFFFF" stroke-width="0.2472" d="M36.249,18.033c0,10.144-7.965,18.365-17.796,18.365
			c-9.833,0-17.785-8.222-17.785-18.365c0-10.146,7.952-18.357,17.785-18.357C28.285-0.324,36.249,7.891,36.249,18.033z"/>
	</g>
</g>
<g id="Group_10_" transform="translate(33.463796, 443.835616)">
	<rect id="Rectangle-path_72_" x="3.289" y="-0.162" fill="#686868" width="65.592" height="7.548"/>
	<rect id="Rectangle-path_73_" x="1.025" y="7.386" fill="#999898" width="47.552" height="1.762"/>
	<rect id="Rectangle-path_74_" x="1.025" y="12.418" fill="#999898" width="51.523" height="1.761"/>
</g>
<rect id="Rectangle-path_75_" x="33.464" y="462.209" fill="#999898" width="70.45" height="7.046"/>
<rect id="Rectangle-path_76_" x="33.464" y="471.016" fill="#999898" width="61.644" height="1.762"/>
<g id="Group_11_" transform="translate(73.972603, 355.772994)">
	<rect id="Rectangle-path_77_" x="3.338" y="-0.179" fill="#FFFFFF" width="19.727" height="7.397"/>
	<rect id="Rectangle-path_78_" x="0.212" y="7.218" fill="#FFFFFF" width="17.654" height="1.761"/>
	<rect id="Rectangle-path_79_" x="0.873" y="17.082" fill="#FFFFFF" width="12.328" height="4.931"/>
</g>
<polygon id="Shape_30_" opacity="0.3" fill="#FFFFFF" enable-background="new    " points="102.153,471.016 102.153,331.877 
	29.942,331.877 "/>
<g id="Group_12_" transform="translate(44.031311, 399.804305)">
	<path id="Shape_31_" fill="#A7DAE8" d="M31.385,25.124c-0.436,1.382-1.143,2.623-2.085,3.662l7.104,10.144
		c3.588-3.169,6.164-7.488,7.143-12.424L31.385,25.124z"/>
	<path id="Shape_32_" fill="#8EC047" d="M24.142,12.26c4.131,0.881,7.268,4.449,7.683,8.83l12.146,1.371
		c0-0.14,0.02-0.275,0.02-0.418c0-11.648-8.723-21.209-19.846-22.237V12.26H24.142z"/>
	<path id="Shape_33_" fill="#39A8E0" d="M14.968,15.346c1.348-1.534,3.139-2.648,5.208-3.084V-0.194
		C13.694,0.402,8.055,3.898,4.443,9.011L14.968,15.346z"/>
	<path id="Shape_34_" fill="#0178B2" d="M26.091,31.159c-1.208,0.556-2.537,0.869-3.936,0.869c-5.39,0-9.761-4.473-9.761-9.984
		c0-1.129,0.226-2.189,0.563-3.198L2.432,12.508c-1.333,2.896-2.111,6.117-2.111,9.538c0,12.336,9.775,22.333,21.835,22.333
		c4.026,0,7.788-1.127,11.022-3.081L26.091,31.159z"/>
</g>
<g id="Group_13_" transform="translate(718.590998, 137.377691)">
	<path id="Shape_35_" fill="#A7DAE8" d="M31.891,27.453c-0.448,1.513-1.167,2.873-2.128,4.015l7.264,11.127
		c3.666-3.473,6.308-8.212,7.306-13.627L31.891,27.453z"/>
	<path id="Shape_36_" fill="#0178B2" d="M24.482,13.342c4.232,0.971,7.443,4.883,7.857,9.689l12.422,1.502
		c0-0.156,0.02-0.304,0.02-0.458c0-12.776-8.92-23.263-20.299-24.393V13.342z"/>
	<path id="Shape_37_" fill="#39A8E0" d="M15.102,16.731c1.384-1.683,3.215-2.907,5.329-3.389V-0.317
		C13.798,0.337,8.03,4.172,4.345,9.78L15.102,16.731z"/>
	<path id="Shape_38_" fill="#8EC047" d="M26.478,34.074c-1.234,0.605-2.589,0.95-4.03,0.95c-5.507,0-9.976-4.907-9.976-10.951
		c0-1.238,0.227-2.402,0.569-3.507L2.284,13.612C0.915,16.789,0.12,20.32,0.12,24.073c0,13.529,9.992,24.496,22.327,24.496
		c4.119,0,7.961-1.238,11.275-3.377L26.478,34.074z"/>
</g>
<g id="Group_14_" transform="translate(781.996086, 137.377691)">
	<rect id="Rectangle-path_80_" x="1.625" y="-0.235" fill="#CDCCCC" width="4.492" height="44.529"/>
	<rect id="Rectangle-path_81_" x="1.611" y="44.294" fill="#CDCCCC" width="77.013" height="4.19"/>
	<g id="Rectangle-path_82_" transform="translate(9.820317, 14.045988)">
		<rect x="1.121" y="10.45" fill="#8EC047" width="6.896" height="19.801"/>
		<rect x="1.121" y="0.548" opacity="0.5" fill="#8EC047" enable-background="new    " width="6.896" height="9.9"/>
	</g>
	<g id="Rectangle-path_83_" transform="translate(22.095713, 10.580095)">
		<rect x="1.706" y="5.338" fill="#8EC047" width="6.896" height="28.376"/>
		<rect x="1.706" y="-0.338" opacity="0.5" fill="#8EC047" enable-background="new    " width="6.896" height="5.676"/>
	</g>
	<g id="Rectangle-path_84_" transform="translate(36.132362, 19.336035)">
		<rect x="0.522" y="10.553" fill="#8EC047" width="6.896" height="14.408"/>
		<rect x="0.522" y="0.209" opacity="0.5" fill="#8EC047" enable-background="new    " width="6.896" height="10.345"/>
	</g>
	<g id="Rectangle-path_85_" transform="translate(49.101584, 27.271108)">
		<rect x="0.412" y="8.768" fill="#8EC047" width="6.892" height="8.255"/>
		<rect x="0.412" y="0.521" opacity="0.5" fill="#8EC047" enable-background="new    " width="6.892" height="8.25"/>
	</g>
</g>
<g id="Group_15_" transform="translate(708.023483, 216.634051)">
	<g id="Shape_39_">
		<polygon fill="#8EC047" points="3.425,27.1 1.462,24.36 25.86,5.879 41.711,17.014 67.034,-0.798 68.903,2.011 41.716,21.134 
			25.935,10.053 		"/>
		<polygon fill="#8EC047" points="69.141,7.965 66.487,7.965 66.487,1.964 60.653,1.964 60.653,-0.753 69.141,-0.753 		"/>
	</g>
	<ellipse id="Oval_3_" fill="#CDCCCC" cx="41.502" cy="18.434" rx="3.644" ry="3.743"/>
	<path id="Shape_40_" fill="#CDCCCC" d="M29.589,7.965c0-2.066-1.633-3.74-3.645-3.74c-2.001,0-3.639,1.671-3.639,3.74
		c0,2.063,1.638,3.74,3.639,3.74C27.956,11.705,29.589,10.029,29.589,7.965z"/>
</g>
<g id="Group_16_" transform="translate(716.829746, 355.772994)">
	<g id="Shape_41_">
		<polygon fill="#8EC047" points="3.005,28.283 0.944,25.457 26.536,6.356 43.17,17.863 69.729,-0.543 71.689,2.356 43.17,22.122 
			26.608,10.665 		"/>
		<polygon fill="#8EC047" points="71.936,8.511 69.157,8.511 69.157,2.311 63.032,2.311 63.032,-0.499 71.936,-0.499 		"/>
	</g>
	<ellipse id="Oval_4_" fill="#CDCCCC" cx="42.946" cy="19.333" rx="3.816" ry="3.863"/>
	<ellipse id="Oval_5_" fill="#CDCCCC" cx="26.629" cy="8.512" rx="3.822" ry="3.868"/>
</g>
<g id="Group_17_" transform="translate(644.618395, 350.489237)">
	<rect id="Rectangle-path_86_" x="1.377" y="-0.389" fill="#CDCCCC" width="3.752" height="42.542"/>
	<rect id="Rectangle-path_87_" x="1.377" y="42.153" fill="#CDCCCC" width="64.14" height="4.001"/>
	<g id="Rectangle-path_88_" transform="translate(8.886906, 13.561644)">
		<rect x="0.258" y="9.675" fill="#8EC047" width="5.737" height="18.917"/>
		<rect x="0.258" y="0.213" opacity="0.5" fill="#8EC047" enable-background="new    " width="5.737" height="9.462"/>
	</g>
	<g id="Rectangle-path_89_" transform="translate(19.122170, 10.215264)">
		<rect x="0.733" y="4.829" fill="#8EC047" width="5.741" height="27.109"/>
		<rect x="0.733" y="-0.593" opacity="0.5" fill="#8EC047" enable-background="new    " width="5.741" height="5.422"/>
	</g>
	<g id="Rectangle-path_90_" transform="translate(30.399346, 18.669276)">
		<rect x="0.16" y="9.718" fill="#8EC047" width="5.746" height="13.766"/>
		<rect x="0.16" y="-0.162" opacity="0.5" fill="#8EC047" enable-background="new    " width="5.746" height="9.881"/>
	</g>
	<g id="Rectangle-path_91_" transform="translate(40.634611, 26.330724)">
		<rect x="0.636" y="7.938" fill="#8EC047" width="5.746" height="7.885"/>
		<rect x="0.636" y="0.057" opacity="0.5" fill="#8EC047" enable-background="new    " width="5.746" height="7.881"/>
	</g>
</g>
<g id="Group_18_" transform="translate(574.168297, 350.489237)">
	<path id="Shape_42_" fill="#A7DAE8" d="M31.722,25.862c-0.443,1.435-1.149,2.723-2.094,3.805l7.131,10.539
		c3.602-3.289,6.185-7.781,7.161-12.909L31.722,25.862z"/>
	<path id="Shape_43_" fill="#0178B2" d="M24.45,12.497c4.153,0.918,7.296,4.625,7.706,9.174l12.192,1.426
		c0-0.146,0.015-0.287,0.015-0.435c0-12.105-8.751-22.034-19.913-23.104V12.497z"/>
	<path id="Shape_44_" fill="#39A8E0" d="M15.246,15.7c1.357-1.591,3.15-2.75,5.221-3.205V-0.444
		C13.962,0.173,8.308,3.81,4.692,9.119L15.246,15.7z"/>
	<path id="Shape_45_" fill="#8EC047" d="M26.407,32.134c-1.21,0.572-2.542,0.902-3.954,0.902c-5.409,0-9.788-4.65-9.788-10.377
		c0-1.172,0.222-2.275,0.555-3.322L2.67,12.748c-1.342,3.011-2.123,6.356-2.123,9.911c0,12.82,9.805,23.204,21.903,23.204
		c4.039,0,7.809-1.169,11.063-3.2L26.407,32.134z"/>
</g>
<defs>
	<filter id="Adobe_OpacityMaskFilter" filterUnits="userSpaceOnUse" x="230.74" y="508.688" width="227.521" height="20.313">
		<feColorMatrix  type="matrix" values="1 0 0 0 0  0 1 0 0 0  0 0 1 0 0  0 0 0 1 0"/>
	</filter>
</defs>
<mask maskUnits="userSpaceOnUse" x="230.74" y="508.688" width="227.521" height="20.313" id="SVGID_9_">
	<g filter="url(#Adobe_OpacityMaskFilter)">
		
			<radialGradient id="SVGID_10_" cx="344.5003" cy="2396.2617" r="113.7456" gradientTransform="matrix(1 0 0 0.0893 0 304.8576)" gradientUnits="userSpaceOnUse">
			<stop  offset="0" style="stop-color:#FFFFFF"/>
			<stop  offset="1" style="stop-color:#14130A"/>
		</radialGradient>
		<path fill="url(#SVGID_10_)" d="M458.261,518.843c0,5.615-50.932,10.157-113.761,10.157c-62.833,0-113.76-4.542-113.76-10.157
			c0-5.612,50.928-10.155,113.76-10.155C407.329,508.688,458.261,513.23,458.261,518.843z"/>
	</g>
</mask>
<linearGradient id="SVGID_11_" gradientUnits="userSpaceOnUse" x1="344.5296" y1="528.9756" x2="344.472" y2="508.856">
	<stop  offset="0" style="stop-color:#4D4848"/>
	<stop  offset="0.3539" style="stop-color:#14130A"/>
	<stop  offset="1" style="stop-color:#14130A"/>
</linearGradient>
<path opacity="0.33" mask="url(#SVGID_9_)" fill="url(#SVGID_11_)" d="M458.261,518.843c0,5.615-50.932,10.157-113.761,10.157
	c-62.833,0-113.76-4.542-113.76-10.157c0-5.612,50.928-10.155,113.76-10.155C407.329,508.688,458.261,513.23,458.261,518.843z"/>
<defs>
	<filter id="Adobe_OpacityMaskFilter_1_" filterUnits="userSpaceOnUse" x="427.111" y="507.634" width="423.795" height="18.105">
		<feColorMatrix  type="matrix" values="1 0 0 0 0  0 1 0 0 0  0 0 1 0 0  0 0 0 1 0"/>
	</filter>
</defs>
<mask maskUnits="userSpaceOnUse" x="427.111" y="507.634" width="423.795" height="18.105" id="SVGID_12_">
	<g filter="url(#Adobe_OpacityMaskFilter_1_)">
		
			<radialGradient id="SVGID_13_" cx="520.51" cy="2227.332" r="85.3984" gradientTransform="matrix(2.4814 0 0 0.106 -652.5858 280.5892)" gradientUnits="userSpaceOnUse">
			<stop  offset="0" style="stop-color:#FFFFFF"/>
			<stop  offset="1" style="stop-color:#14130A"/>
		</radialGradient>
		<path fill="url(#SVGID_13_)" d="M850.906,516.686c0,5.006-94.867,9.054-211.898,9.054c-117.035,0-211.896-4.048-211.896-9.054
			c0-5.002,94.861-9.052,211.896-9.052C756.038,507.634,850.906,511.684,850.906,516.686z"/>
	</g>
</mask>
<linearGradient id="SVGID_14_" gradientUnits="userSpaceOnUse" x1="639.0344" y1="525.7344" x2="638.983" y2="507.7688">
	<stop  offset="0" style="stop-color:#4D4848"/>
	<stop  offset="0.3539" style="stop-color:#14130A"/>
	<stop  offset="1" style="stop-color:#14130A"/>
</linearGradient>
<path opacity="0.33" mask="url(#SVGID_12_)" fill="url(#SVGID_14_)" d="M850.906,516.686c0,5.006-94.867,9.054-211.898,9.054
	c-117.035,0-211.896-4.048-211.896-9.054c0-5.002,94.861-9.052,211.896-9.052C756.038,507.634,850.906,511.684,850.906,516.686z"/>
<defs>
	<filter id="Adobe_OpacityMaskFilter_2_" filterUnits="userSpaceOnUse" x="691.112" y="283.848" width="186.114" height="18.649">
		<feColorMatrix  type="matrix" values="1 0 0 0 0  0 1 0 0 0  0 0 1 0 0  0 0 0 1 0"/>
	</filter>
</defs>
<mask maskUnits="userSpaceOnUse" x="691.112" y="283.848" width="186.114" height="18.649" id="SVGID_15_">
	<g filter="url(#Adobe_OpacityMaskFilter_2_)">
		
			<radialGradient id="SVGID_16_" cx="784.1682" cy="-276.1758" r="93.0581" gradientTransform="matrix(1 0 0 0.1002 0 320.8449)" gradientUnits="userSpaceOnUse">
			<stop  offset="0" style="stop-color:#FFFFFF"/>
			<stop  offset="1" style="stop-color:#14130A"/>
		</radialGradient>
		<path fill="url(#SVGID_16_)" d="M877.226,293.172c0,5.154-41.662,9.325-93.056,9.325c-51.398,0-93.059-4.171-93.059-9.325
			c0-5.155,41.66-9.324,93.059-9.324C835.564,283.848,877.226,288.017,877.226,293.172z"/>
	</g>
</mask>
<linearGradient id="SVGID_17_" gradientUnits="userSpaceOnUse" x1="784.1956" y1="302.4746" x2="784.1427" y2="284.0034">
	<stop  offset="0" style="stop-color:#4D4848"/>
	<stop  offset="0.3539" style="stop-color:#14130A"/>
	<stop  offset="1" style="stop-color:#14130A"/>
</linearGradient>
<path opacity="0.33" mask="url(#SVGID_15_)" fill="url(#SVGID_17_)" d="M877.226,293.172c0,5.154-41.662,9.325-93.056,9.325
	c-51.398,0-93.059-4.171-93.059-9.325c0-5.155,41.66-9.324,93.059-9.324C835.564,283.848,877.226,288.017,877.226,293.172z"/>
<defs>
	<filter id="Adobe_OpacityMaskFilter_3_" filterUnits="userSpaceOnUse" x="16.324" y="505.714" width="101.492" height="8.656">
		<feColorMatrix  type="matrix" values="1 0 0 0 0  0 1 0 0 0  0 0 1 0 0  0 0 0 1 0"/>
	</filter>
</defs>
<mask maskUnits="userSpaceOnUse" x="16.324" y="505.714" width="101.492" height="8.656" id="SVGID_18_">
	<g filter="url(#Adobe_OpacityMaskFilter_3_)">
		
			<radialGradient id="SVGID_19_" cx="87.1018" cy="2297.6953" r="48.4729" gradientTransform="matrix(1.0468 0 0 0.0893 -24.1067 304.8576)" gradientUnits="userSpaceOnUse">
			<stop  offset="0" style="stop-color:#FFFFFF"/>
			<stop  offset="1" style="stop-color:#14130A"/>
		</radialGradient>
		<path fill="url(#SVGID_19_)" d="M117.817,510.043c0,2.392-22.72,4.327-50.747,4.327c-28.028,0-50.745-1.936-50.745-4.327
			c0-2.394,22.717-4.329,50.745-4.329C95.097,505.714,117.817,507.649,117.817,510.043z"/>
	</g>
</mask>
<linearGradient id="SVGID_20_" gradientUnits="userSpaceOnUse" x1="67.0828" y1="514.3594" x2="67.0583" y2="505.7836">
	<stop  offset="0" style="stop-color:#4D4848"/>
	<stop  offset="0.3539" style="stop-color:#14130A"/>
	<stop  offset="1" style="stop-color:#14130A"/>
</linearGradient>
<path opacity="0.33" mask="url(#SVGID_18_)" fill="url(#SVGID_20_)" d="M117.817,510.043c0,2.392-22.72,4.327-50.747,4.327
	c-28.028,0-50.745-1.936-50.745-4.327c0-2.394,22.717-4.329,50.745-4.329C95.097,505.714,117.817,507.649,117.817,510.043z"/>
</svg>
