<?xml version="1.0" encoding="UTF-8"?>
<svg width="193px" height="70px" viewBox="0 0 193 70" version="1.1" xmlns="http://www.w3.org/2000/svg" xmlns:xlink="http://www.w3.org/1999/xlink">
    <!-- Generator: Sketch 51.2 (57519) - http://www.bohemiancoding.com/sketch -->
    <title>nubols</title>
    <desc>Created with Sketch.</desc>
    <defs></defs>
    <g id="Page-1" stroke="none" stroke-width="1" fill="none" fill-rule="evenodd">
        <g id="Group-4-Copy" transform="translate(-166.000000, -27.000000)" fill-rule="nonzero">
            <g id="nubols" transform="translate(166.000000, 27.000000)">
                <path d="M114.894,17.208 C116.187,10.352 122.202,5.156 129.435,5.156 C132.532,5.156 135.403,6.109 137.78,7.734 C140.378,3.461 145.061,0.595 150.428,0.595 C157.074,0.595 162.698,4.976 164.572,11.007 C165.26,10.908 165.957,10.84 166.675,10.84 C174.058,10.84 180.161,16.252 181.28,23.319 C187.359,23.764 192.156,28.826 192.156,35.02 C192.156,41.504 186.899,46.762 180.415,46.762 L116,46.762 C107.818,46.762 101.192,40.13 101.192,31.952 C101.193,24.154 107.234,17.773 114.894,17.208 Z" id="Shape_236_" fill="#D2F4FF"></path>
                <path d="M6.781,56.82 C7.399,52.841 10.812,49.788 14.969,49.788 C15.385,49.788 15.782,49.851 16.182,49.91 C17.229,46.515 20.354,44.031 24.09,44.031 C27.108,44.031 29.723,45.652 31.182,48.056 C32.52,47.133 34.137,46.591 35.881,46.591 C39.954,46.591 43.33,49.525 44.04,53.392 C48.346,53.713 51.742,57.265 51.742,61.646 C51.742,66.24 48.019,69.961 43.429,69.961 L7.248,69.961 C3.603,69.961 0.651,67.008 0.651,63.366 C0.652,59.887 3.359,57.064 6.781,56.82 Z" id="Shape_205_" fill="#FAFEFF"></path>
            </g>
        </g>
    </g>
</svg>