<?xml version="1.0" encoding="UTF-8"?>
<svg width="1440px" height="1024px" viewBox="0 0 1440 1024" version="1.1" xmlns="http://www.w3.org/2000/svg" xmlns:xlink="http://www.w3.org/1999/xlink">
    <!-- Generator: Sketch 51.2 (57519) - http://www.bohemiancoding.com/sketch -->
    <title>Desktop HD Copy</title>
    <desc>Created with Sketch.</desc>
    <defs></defs>
    <g id="Desktop-HD-Copy" stroke="none" stroke-width="1" fill="none" fill-rule="evenodd" fill-opacity="0.54">
        <polygon id="Path" fill="#3AAAD2" points="41.6021098 641.898236 602.860334 989.711429 637.191066 933.441112 705.074029 946.834875 795.468658 919.050631 783.673182 853.4324 884.489113 817.022715 901.297666 748.712166 986.413819 730.936384 956.482799 680.664067 1028.60624 660.543496 1016.79896 611.507192 1089.21729 586.547966 1101.16021 529.764546 1166.30072 512 1181.9946 480.335605 1217.10384 458.596543 1217.10384 418.816301 1269.80012 400.374074 1269.80012 349.358642 1334.65165 349.358642 1334.65165 297.086991 1440 297.086991 1440 1024 0 1024 0 611.507192"></polygon>
    </g>
</svg>