<?xml version="1.0" encoding="UTF-8"?>
<svg width="577px" height="334px" viewBox="0 0 577 334" version="1.1" xmlns="http://www.w3.org/2000/svg" xmlns:xlink="http://www.w3.org/1999/xlink">
    <!-- Generator: Sketch 51.2 (57519) - http://www.bohemiancoding.com/sketch -->
    <title>fons</title>
    <desc>Created with Sketch.</desc>
    <defs>
        <linearGradient x1="-39.9931241%" y1="49.6863169%" x2="100.000003%" y2="50.0001285%" id="linearGradient-1">
            <stop stop-color="#FFFFFF" offset="0%"></stop>
            <stop stop-color="#FDFEFF" offset="26.94%"></stop>
            <stop stop-color="#F4FAFD" offset="42.5%"></stop>
            <stop stop-color="#E6F4FB" offset="55.16%"></stop>
            <stop stop-color="#D2EBF8" offset="66.27%"></stop>
            <stop stop-color="#B9DFF3" offset="76.35%"></stop>
            <stop stop-color="#99D0EE" offset="85.7%"></stop>
            <stop stop-color="#74BFE8" offset="94.31%"></stop>
            <stop stop-color="#57B2E3" offset="100%"></stop>
        </linearGradient>
    </defs>
    <g id="Page-1" stroke="none" stroke-width="1" fill="none" fill-rule="evenodd" opacity="0.326450893">
        <g id="fons" fill="url(#linearGradient-1)" fill-rule="nonzero">
            <g id="Page-1">
                <path d="M160.971,33.364 C147.874,49.327 163.359,113.224 150.366,133.629 C133.288,160.453 105.637,147.544 56.409,178.677 C37.868,190.402 0.3,204.926 0.368,233.657 C0.527,298.996 22.295,333.787 93.438,333.787 C148.693,333.787 166.929,331.532 265.752,311.684 C374.106,289.918 381.961,322.41 446.663,323.554 C492.913,324.372 558.855,304.307 573.266,234.454 C587.331,166.267 549.397,91.892 493.94,78.492 C440.424,65.56 412.7,87.532 368.341,113.729 C362.347,117.269 345.651,118.209 333.286,96.394 C326.106,83.727 322.54,65.042 316.096,52.599 C304.227,29.679 281.267,7.77 238.329,1.847 C202.721,-3.063 179.775,10.447 160.971,33.364 Z" id="fons"></path>
            </g>
        </g>
    </g>
</svg>