<?xml version="1.0" encoding="UTF-8"?>
<svg width="121px" height="121px" viewBox="0 0 121 121" version="1.1" xmlns="http://www.w3.org/2000/svg" xmlns:xlink="http://www.w3.org/1999/xlink">
    <!-- Generator: Sketch 51.2 (57519) - http://www.bohemiancoding.com/sketch -->
    <title>icona</title>
    <desc>Created with Sketch.</desc>
    <defs></defs>
    <g id="Page-1" stroke="none" stroke-width="1" fill="none" fill-rule="evenodd">
        <g id="icona" fill-rule="nonzero">
            <path d="M115.395,46.021 L117.094,46.021 C118.932,46.021 120.433,44.542 120.433,42.68 C120.433,40.848 118.951,39.343 117.094,39.343 L115.395,39.343 L119.602,31.129 C120.77,28.5 118.872,26.283 116.62,26.283 L97.712,26.283 C96.468,26.283 95.306,26.993 94.732,28.1 L89.021,39.342 L83.982,39.342 C82.283,17.829 64.246,0.819 42.294,0.819 C19.222,0.819 0.448,19.587 0.448,42.662 C0.448,64.751 38.009,117.107 39.586,119.323 C40.991,121.218 43.697,121.057 45.002,119.323 C46.502,117.227 80.664,69.594 83.864,46.003 L89.021,46.003 L94.752,57.268 C95.323,58.371 96.468,59.081 97.731,59.081 L116.639,59.081 C119.664,59.081 120.808,55.9 119.404,53.864 L115.395,46.021 Z M15.4561308,42.701 C15.4561308,57.637 27.7836309,69.768 42.9550008,69.768 C56.9680957,69.768 68.5518613,59.375 70.2384722,46.039 L78.3270924,46.039 C75.5167515,62.777 54.1374343,95.751 42.897087,111.675 C30.8317229,94.626 7.145,58.014 7.145,42.72 C7.145,23.34 23.1637395,7.536 42.897087,7.536 C61.4650474,7.536 76.7613891,21.544 78.448,39.38 L70.2384722,39.38 C68.5518613,25.989 56.8095949,15 42.7965,15 C27.6434187,15 15.4561308,27.767 15.4561308,42.701 Z M99.768,52.423 L96.508,46.021 L107.946,46.021 L111.206,52.423 L99.768,52.423 Z M107.945,39.36 L96.507,39.36 L99.767,32.962 L111.205,32.962 L107.945,39.36 Z" id="Shape" fill="#35AFE4"></path>
            <path d="M81,39.3157895 C79.1318299,19.8150288 62.5019983,3 42.1770197,3 C20.5973166,3 3,20.2558089 3,41.5155347 C3,58.2350071 28.8443192,99.3354866 42.0651299,118 C54.4041821,100.57125 77.9427919,63.5108078 81,45.1483942 L72.1367685,45.1483942 C70.2886383,59.7455061 57.5922067,71.1213146 42.2415929,71.1213146 C25.637368,71.1213146 12.1081644,57.8464367 12.1081644,41.4925489 C12.1081644,25.1441339 25.6162147,11.8681614 42.2415929,11.8681614 C57.5910933,11.8681614 70.287525,24.7175831 72.1367685,39.3157895 L81,39.3157895 Z" id="Shape" fill="#0076B1"></path>
            <path d="M42.4988485,38.6528077 L65.6603048,38.6528077 C63.8190416,27.5326833 54.1509702,19 42.4988485,19 C29.5558849,19 19,29.5547334 19,42.5 C19,55.4464181 29.5558849,66 42.4988485,66 C54.1509702,66 63.8201931,57.4753773 65.6603048,46.3437377 L42.4988485,46.3437377 C40.3835261,46.3437377 38.6539592,44.6418071 38.6539592,42.5 C38.6539592,40.3662534 40.3581929,38.6528077 42.4988485,38.6528077" id="Shape" fill="#FFFFFF"></path>
            <polygon id="Shape" fill="#0076B1" points="110.464402 39.36 115.728367 29 97.2608921 29 91.9646328 39.36"></polygon>
            <polygon id="Shape" fill="#0076B1" points="91 46 96.7946592 57.3154855 117 57.3154855 111.240674 46"></polygon>
        </g>
    </g>
</svg>